<?xml version="1.0" encoding="utf-8"?>
<!-- Generator: Adobe Illustrator 25.0.0, SVG Export Plug-In . SVG Version: 6.00 Build 0)  -->
<svg version="1.1" id="Capa_1" xmlns="http://www.w3.org/2000/svg" xmlns:xlink="http://www.w3.org/1999/xlink" x="0px" y="0px"
	 viewBox="0 0 685 696" style="enable-background:new 0 0 685 696;" xml:space="preserve">
<style type="text/css">
	.st0{fill-rule:evenodd;clip-rule:evenodd;fill:#007254;}
	.st1{fill-rule:evenodd;clip-rule:evenodd;fill:#005F45;}
	.st2{fill-rule:evenodd;clip-rule:evenodd;fill:#00533C;}
	.st3{fill-rule:evenodd;clip-rule:evenodd;fill:#003D2A;}
	.st4{fill-rule:evenodd;clip-rule:evenodd;fill:#002510;}
	.st5{fill-rule:evenodd;clip-rule:evenodd;fill:#008C68;}
	.st6{fill-rule:evenodd;clip-rule:evenodd;fill:#004430;}
	.st7{fill-rule:evenodd;clip-rule:evenodd;fill:#003625;}
</style>
<g>
	<path class="st0" d="M439.98,24.94C617.93,79.27,718.69,265.81,665.03,441.6c-53.66,175.79-241.44,274.26-419.39,219.93
		S-33.08,420.65,20.59,244.88C74.25,69.08,262.02-29.38,439.98,24.94z"/>
	<path class="st1" d="M429.98,79.85c172.35,52.28,272.25,224.33,223.12,384.27c-49.13,159.94-228.68,247.21-401.04,194.93
		C79.7,606.75-20.2,434.72,28.94,274.78C78.07,114.83,257.63,27.56,429.98,79.85z"/>
	<path class="st2" d="M425.19,99.85c166.84,50.93,263.84,217.57,216.64,372.23c-47.22,154.63-220.75,238.7-387.59,187.78
		C87.38,608.91-9.6,442.26,37.6,287.63C84.82,132.98,258.33,48.9,425.19,99.85z"/>
	<path class="st3" d="M426.67,128.08c156.8,47.87,247.95,204.49,203.59,349.82C585.89,623.24,422.82,702.25,266,654.38
		C109.21,606.51,18.05,449.88,62.41,304.56C106.78,159.22,269.87,80.22,426.67,128.08z"/>
	<path class="st4" d="M427.4,162.56c143.84,43.91,227.45,187.56,186.75,320.87c-40.69,133.3-190.28,205.78-334.11,161.88
		C136.21,601.4,52.61,457.74,93.3,324.42C133.98,191.12,283.58,118.64,427.4,162.56z"/>
	<path class="st5" d="M439.98,24.94c146.85,44.81,241.11,179.68,239.43,324.24C670.92,214.03,579.17,91.56,440.59,49.26
		C262.63-5.07,74.87,93.39,21.21,269.19c-9.39,30.73-14.03,61.79-14.38,92.41c-2.41-38.41,1.87-77.83,13.76-116.72
		C74.25,69.08,262.02-29.38,439.98,24.94z"/>
	<path class="st2" d="M329,144.98c7.58,2.32,11.99,9.89,9.84,16.92c-2.13,7.03-10.03,10.85-17.61,8.53
		c-7.59-2.31-11.99-9.89-9.85-16.92C313.51,146.48,321.41,142.66,329,144.98z"/>
	<path class="st2" d="M403.93,164.82c5.24,1.6,8.27,6.82,6.8,11.67c-1.48,4.84-6.92,7.47-12.14,5.87
		c-5.22-1.59-8.26-6.81-6.79-11.65C393.28,165.87,398.72,163.24,403.93,164.82z"/>
	<path class="st2" d="M280.94,176.13c3.16,0.95,4.99,4.11,4.1,7.04c-0.88,2.92-4.17,4.5-7.32,3.54c-3.15-0.95-4.99-4.11-4.1-7.04
		C274.49,176.75,277.79,175.15,280.94,176.13z"/>
	<path class="st6" d="M351.94,192.44c9.25,2.82,14.64,12.06,12.02,20.64c-2.62,8.58-12.24,13.24-21.49,10.41
		c-9.24-2.81-14.62-12.05-12.01-20.64C333.08,194.28,342.7,189.61,351.94,192.44z"/>
	<path class="st2" d="M236.87,186.09c6.31,1.93,9.97,8.22,8.2,14.05c-1.79,5.85-8.34,9.02-14.64,7.1
		c-6.31-1.93-9.97-8.22-8.18-14.06C224.02,187.33,230.57,184.16,236.87,186.09z"/>
	<path class="st6" d="M449.95,185.83c11.53,3.52,18.24,15.05,14.98,25.74c-3.27,10.68-15.26,16.5-26.8,12.97
		c-11.53-3.52-18.23-15.05-14.98-25.74C426.42,188.12,438.42,182.3,449.95,185.83z"/>
	<path class="st6" d="M510.92,228.05c7.65,2.32,12.1,9.97,9.93,17.06c-2.17,7.11-10.12,10.96-17.78,8.63
		c-7.65-2.35-12.1-9.98-9.94-17.08C495.31,229.56,503.27,225.71,510.92,228.05z"/>
	<path class="st2" d="M406.87,621.87c4.5,1.37,7.11,5.87,5.84,10.05s-5.96,6.44-10.46,5.06c-4.5-1.37-7.12-5.87-5.85-10.04
		C397.68,622.77,402.36,620.5,406.87,621.87z"/>
	<path class="st2" d="M350.77,622.56c6.38,1.94,10.07,8.3,8.27,14.2c-1.8,5.9-8.44,9.12-14.8,7.18c-6.38-1.94-10.08-8.32-8.27-14.22
		C337.77,623.82,344.4,620.61,350.77,622.56z"/>
	<path class="st2" d="M446.78,622.97c4.49,1.37,7.11,5.88,5.85,10.05c-1.28,4.17-5.97,6.45-10.48,5.06
		c-4.5-1.37-7.12-5.86-5.85-10.05C437.58,623.87,442.27,621.58,446.78,622.97z"/>
	<path class="st6" d="M291.6,208.76c11.53,3.53,18.25,15.05,14.96,25.74c-3.25,10.69-15.25,16.5-26.78,12.98
		c-11.53-3.53-18.24-15.05-14.98-25.74C268.06,211.05,280.05,205.24,291.6,208.76z"/>
	<path class="st6" d="M199.88,269.59c11.52,3.53,18.23,15.05,14.97,25.74c-3.26,10.69-15.25,16.5-26.78,12.99
		c-11.55-3.53-18.25-15.05-14.98-25.74C176.34,271.89,188.35,266.08,199.88,269.59z"/>
	<path class="st6" d="M350.31,267.86c11.53,3.53,18.23,15.05,14.98,25.74c-3.26,10.69-15.26,16.5-26.79,12.97
		c-11.53-3.52-18.25-15.03-14.98-25.73C326.78,270.15,338.78,264.35,350.31,267.86z"/>
	<path class="st6" d="M464.74,246.99c11.53,3.53,18.24,15.05,14.98,25.74c-3.27,10.69-15.26,16.5-26.8,12.98
		c-11.53-3.53-18.25-15.05-14.98-25.74C441.22,249.29,453.21,243.48,464.74,246.99z"/>
	<path class="st6" d="M404.12,232.79c6.76,2.06,10.69,8.79,8.78,15.06c-1.91,6.26-8.94,9.66-15.68,7.6
		c-6.76-2.06-10.68-8.81-8.78-15.06C390.36,234.13,397.38,230.72,404.12,232.79z"/>
	<path class="st2" d="M489.15,585.13c6.76,2.06,10.68,8.81,8.77,15.05c-1.91,6.27-8.93,9.68-15.67,7.61
		c-6.75-2.06-10.69-8.81-8.78-15.06C475.38,586.46,482.41,583.05,489.15,585.13z"/>
	<path class="st6" d="M430.01,586.13c8.44,2.58,13.34,11,10.95,18.82c-2.39,7.81-11.17,12.08-19.59,9.5
		c-8.44-2.58-13.34-11-10.95-18.83C412.8,587.8,421.57,583.56,430.01,586.13z"/>
	<path class="st2" d="M281.74,614.54c6.74,2.05,10.66,8.79,8.76,15.06c-1.91,6.25-8.94,9.65-15.68,7.6
		c-6.76-2.06-10.68-8.81-8.77-15.07C267.95,615.89,274.98,612.48,281.74,614.54z"/>
	<path class="st2" d="M230.5,592.41c5.42,1.64,8.55,7.04,7.03,12.05c-1.53,5.01-7.16,7.73-12.57,6.08
		c-5.4-1.66-8.53-7.04-7.01-12.05C219.49,593.47,225.11,590.76,230.5,592.41z"/>
	<path class="st2" d="M314.32,639.92c4.5,1.38,7.12,5.87,5.85,10.05c-1.28,4.18-5.97,6.46-10.47,5.07
		c-4.51-1.37-7.11-5.87-5.84-10.05C305.13,640.81,309.8,638.55,314.32,639.92z"/>
	<path class="st2" d="M376.61,648.88c4.5,1.39,7.12,5.88,5.85,10.06c-1.28,4.17-5.95,6.44-10.46,5.07
		c-4.5-1.38-7.12-5.87-5.85-10.05S372.1,647.5,376.61,648.88z"/>
	<path class="st6" d="M277.45,278.05c9.25,2.82,14.63,12.06,12.02,20.64c-2.62,8.58-12.25,13.23-21.49,10.41
		c-9.25-2.82-14.63-12.06-12.01-20.63C258.58,279.88,268.21,275.23,277.45,278.05z"/>
	<path class="st7" d="M416.22,306.61c9.25,2.81,14.63,12.06,12.01,20.64c-2.61,8.56-12.23,13.23-21.48,10.41
		c-9.25-2.82-14.62-12.06-12.02-20.64C397.36,308.44,406.98,303.77,416.22,306.61z"/>
	<path class="st7" d="M364.6,359.6c9.24,2.82,14.63,12.06,12,20.64c-2.61,8.58-12.23,13.24-21.48,10.41
		c-9.25-2.82-14.62-12.06-12.01-20.64C345.72,361.44,355.34,356.78,364.6,359.6z"/>
	<path class="st7" d="M282.31,330.14c19.35,5.91,30.58,25.22,25.11,43.14c-5.47,17.92-25.59,27.66-44.92,21.76
		c-19.33-5.9-30.58-25.21-25.1-43.13C242.87,333.99,262.97,324.23,282.31,330.14z"/>
	<path class="st7" d="M331.71,451.3c8.71,2.66,13.77,11.36,11.3,19.41c-2.47,8.07-11.52,12.47-20.23,9.8
		c-8.69-2.65-13.76-11.34-11.3-19.42C313.95,453.02,323.01,448.64,331.71,451.3z"/>
	<path class="st7" d="M472.36,419.09c8.71,2.65,13.77,11.34,11.3,19.42c-2.46,8.07-11.51,12.45-20.22,9.79
		c-8.71-2.66-13.77-11.36-11.3-19.41C454.61,420.81,463.67,416.43,472.36,419.09z"/>
	<path class="st7" d="M430.65,364.2c13.93,4.25,22.05,18.18,18.1,31.1c-3.95,12.93-18.44,19.96-32.39,15.7
		c-13.95-4.26-22.06-18.18-18.11-31.11C402.19,366.97,416.7,359.94,430.65,364.2z"/>
	<path class="st7" d="M402.11,452.99c13.94,4.26,22.05,18.19,18.1,31.1c-3.95,12.93-18.45,19.96-32.39,15.7
		c-13.95-4.26-22.05-18.18-18.11-31.11C373.66,455.76,388.16,448.74,402.11,452.99z"/>
	<path class="st7" d="M242.76,429.57c13.95,4.26,22.05,18.18,18.11,31.11c-3.95,12.92-18.45,19.95-32.4,15.69
		c-13.95-4.25-22.05-18.18-18.1-31.1C214.32,432.34,228.82,425.31,242.76,429.57z"/>
	<path class="st7" d="M165.58,344.57c13.94,4.26,22.05,18.18,18.1,31.11s-18.45,19.95-32.39,15.69
		c-13.95-4.25-22.05-18.17-18.1-31.1C137.13,347.34,151.64,340.33,165.58,344.57z"/>
	<path class="st7" d="M359.22,510.34c19.33,5.9,30.57,25.21,25.1,43.13c-5.47,17.92-25.59,27.66-44.92,21.76
		c-19.33-5.9-30.57-25.21-25.11-43.13C319.77,514.18,339.88,504.43,359.22,510.34z"/>
	<path class="st7" d="M455.07,537.38c9.25,2.82,14.63,12.06,12.01,20.63c-2.62,8.58-12.24,13.23-21.49,10.41
		c-9.24-2.82-14.63-12.06-12.01-20.63C436.19,539.22,445.81,534.55,455.07,537.38z"/>
	<path class="st7" d="M382.91,584.21c9.25,2.84,14.63,12.06,12.01,20.64c-2.62,8.58-12.24,13.24-21.49,10.42
		c-9.24-2.84-14.63-12.08-12.01-20.64C364.04,586.05,373.66,581.38,382.91,584.21z"/>
	<path class="st7" d="M283.48,557.37c9.27,2.82,14.63,12.06,12.02,20.64c-2.62,8.58-12.24,13.23-21.49,10.41
		c-9.25-2.82-14.63-12.06-12.01-20.64C264.6,559.2,274.24,554.55,283.48,557.37z"/>
	<path class="st7" d="M246.37,514.49c9.24,2.82,14.63,12.06,12.01,20.64c-2.62,8.58-12.24,13.24-21.49,10.42
		c-9.25-2.82-14.62-12.06-12.01-20.64S237.11,511.67,246.37,514.49z"/>
	<path class="st7" d="M519.45,464.12c19.33,5.9,30.58,25.21,25.1,43.13c-5.47,17.94-25.58,27.68-44.92,21.76
		c-19.33-5.9-30.57-25.21-25.1-43.13C479.99,467.96,500.11,458.21,519.45,464.12z"/>
	<path class="st7" d="M523.07,326.51c19.33,5.92,30.58,25.22,25.11,43.16c-5.48,17.91-25.59,27.65-44.92,21.76
		c-19.33-5.92-30.58-25.22-25.11-43.14C483.63,330.37,503.74,320.61,523.07,326.51z"/>
	<path class="st7" d="M192.03,476.59c13.93,4.25,22.05,18.17,18.1,31.1c-3.93,12.93-18.44,19.96-32.39,15.7
		c-13.95-4.26-22.05-18.18-18.1-31.11C163.59,479.35,178.08,472.32,192.03,476.59z"/>
	<path class="st7" d="M196.55,543.03c9.25,2.82,14.62,12.06,12.01,20.64c-2.6,8.57-12.24,13.23-21.48,10.41
		c-9.26-2.82-14.63-12.06-12.02-20.64C177.67,544.86,187.29,540.21,196.55,543.03z"/>
	<path class="st7" d="M142.45,424.51c8.71,2.67,13.77,11.37,11.31,19.43c-2.47,8.06-11.53,12.45-20.23,9.79
		c-8.71-2.66-13.76-11.34-11.3-19.43C124.69,426.25,133.74,421.87,142.45,424.51z"/>
	<path class="st7" d="M110.64,378.08c7.06,2.16,11.15,9.2,9.16,15.74c-2,6.54-9.34,10.09-16.39,7.94
		c-7.06-2.15-11.15-9.2-9.16-15.74C96.25,379.48,103.58,375.93,110.64,378.08z"/>
	<path class="st7" d="M561.86,396.66c7.04,2.16,11.15,9.21,9.16,15.74c-2.01,6.54-9.33,10.09-16.39,7.95
		c-7.05-2.16-11.17-9.2-9.16-15.75C547.45,398.06,554.8,394.52,561.86,396.66z"/>
	<path class="st6" d="M590.04,460.2c8.44,2.58,13.35,11,10.96,18.82c-2.39,7.83-11.16,12.07-19.59,9.5
		c-8.44-2.58-13.35-11-10.96-18.82C572.84,461.88,581.61,457.62,590.04,460.2z"/>
	<path class="st6" d="M522.16,547.29c8.44,2.56,13.35,10.99,10.96,18.81c-2.39,7.83-11.17,12.07-19.59,9.5
		c-8.44-2.56-13.35-10.99-10.96-18.82C504.96,548.96,513.73,544.71,522.16,547.29z"/>
	<path class="st6" d="M148.61,296c8.44,2.58,13.35,11,10.96,18.82c-2.39,7.81-11.16,12.08-19.59,9.5
		c-8.44-2.58-13.35-11-10.96-18.82C131.41,297.67,140.19,293.42,148.61,296z"/>
	<path class="st6" d="M201.62,221.51c8.44,2.58,13.34,11,10.95,18.82c-2.37,7.83-11.15,12.08-19.59,9.5
		c-8.44-2.58-13.34-11-10.95-18.82C184.42,223.19,193.2,218.93,201.62,221.51z"/>
	<path class="st6" d="M149.34,526.76c6.38,1.95,10.07,8.32,8.26,14.21c-1.8,5.91-8.42,9.13-14.79,7.19
		c-6.38-1.95-10.08-8.32-8.28-14.22C136.35,528.02,142.97,524.82,149.34,526.76z"/>
	<path class="st2" d="M565.86,516.04c6.38,1.95,10.08,8.32,8.28,14.22c-1.8,5.9-8.43,9.12-14.8,7.16c-6.38-1.94-10.08-8.3-8.27-14.2
		C552.86,517.32,559.5,514.1,565.86,516.04z"/>
	<path class="st6" d="M552.31,266.23c6.36,1.94,10.07,8.3,8.26,14.22c-1.81,5.9-8.43,9.1-14.8,7.16c-6.37-1.94-10.07-8.3-8.26-14.22
		C539.29,267.49,545.93,264.29,552.31,266.23z"/>
	<path class="st7" d="M505.43,285.11c7.06,2.16,11.15,9.2,9.16,15.74c-2,6.54-9.34,10.09-16.39,7.95
		c-7.06-2.17-11.15-9.2-9.16-15.75C491.03,286.5,498.38,282.95,505.43,285.11z"/>
	<path class="st2" d="M592.83,317.64c5.44,1.64,8.59,7.07,7.06,12.1c-1.55,5.03-7.19,7.76-12.62,6.1
		c-5.43-1.65-8.59-7.08-7.06-12.12C581.76,318.71,587.41,315.97,592.83,317.64z"/>
	<path class="st2" d="M608.61,415.13c3.23,0.98,5.1,4.2,4.19,7.19c-0.91,3-4.27,4.62-7.49,3.62c-3.21-0.98-5.09-4.21-4.19-7.19
		C602.05,415.76,605.4,414.13,608.61,415.13z"/>
	<path class="st2" d="M108.3,339.38c3.23,0.98,5.1,4.19,4.19,7.19c-0.92,2.98-4.27,4.6-7.49,3.62c-3.23-0.98-5.1-4.19-4.19-7.19
		C101.74,340.01,105.09,338.38,108.3,339.38z"/>
	<path class="st2" d="M112.42,477.18c3.22,0.99,5.09,4.21,4.18,7.19c-0.91,3-4.26,4.63-7.49,3.64c-3.21-0.99-5.1-4.21-4.18-7.19
		C105.84,477.82,109.2,476.21,112.42,477.18z"/>
</g>
</svg>
