<?xml version="1.0" encoding="utf-8"?>
<!-- Generator: Adobe Illustrator 25.2.0, SVG Export Plug-In . SVG Version: 6.00 Build 0)  -->
<svg version="1.1" id="Capa_1" xmlns="http://www.w3.org/2000/svg" xmlns:xlink="http://www.w3.org/1999/xlink" x="0px" y="0px"
	 viewBox="0 0 1000 1000" style="enable-background:new 0 0 1000 1000;" xml:space="preserve">
<style type="text/css">
	.st0{fill:url(#SVGID_1_);}
	.st1{fill:url(#SVGID_2_);}
	.st2{fill:#E6A1F0;}
	.st3{fill:#705718;}
	.st4{clip-path:url(#SVGID_4_);fill:url(#SVGID_5_);}
	.st5{clip-path:url(#SVGID_4_);fill:#BC1463;}
	.st6{clip-path:url(#SVGID_4_);}
	.st7{fill:#BC1463;}
</style>
<g>
	<g>
		
			<radialGradient id="SVGID_1_" cx="552.867" cy="-188.2295" r="396.1466" gradientTransform="matrix(-0.1149 -0.9934 0.9934 -0.1149 643.0945 1097.7603)" gradientUnits="userSpaceOnUse">
			<stop  offset="0" style="stop-color:#D92055"/>
			<stop  offset="0.6809" style="stop-color:#6E084C"/>
			<stop  offset="0.7575" style="stop-color:#77094F"/>
			<stop  offset="0.8799" style="stop-color:#8E0D58"/>
			<stop  offset="1" style="stop-color:#AB1163"/>
		</radialGradient>
		<path class="st0" d="M370.3,717.5c-94.6-56.7-139.2-174.4-116.1-279.8c1.6-7.4,3.6-14.7,5.8-21.9c7.8-24.8,19.6-48.6,35.4-69.4
			c26.6-35.2,51.4-65.7,92.7-85.6c64.7-31.2,147.5-29.8,214.4-8c26.5,8.6,52.2,20.3,73.6,37.9c45.4,37.4,65.6,96.8,75.6,154.3
			c11.5,66.2,9.2,137.1-27.6,195.9c-17.3,27.7-46,49.2-72.6,68.2c-17.6,12.6-39.5,28.5-60.6,34.4c-45.5,12.7-93.8,15-140.1,5.4
			C422.4,742.8,395.1,732.4,370.3,717.5z"/>
		
			<radialGradient id="SVGID_2_" cx="561.4775" cy="-187.4439" r="402.5789" gradientTransform="matrix(-0.1149 -0.9934 0.9934 -0.1149 643.0945 1097.7603)" gradientUnits="userSpaceOnUse">
			<stop  offset="0" style="stop-color:#FFC23E"/>
			<stop  offset="9.766699e-02" style="stop-color:#F9B241"/>
			<stop  offset="0.2891" style="stop-color:#E8884A"/>
			<stop  offset="0.553" style="stop-color:#CE4459"/>
			<stop  offset="0.7262" style="stop-color:#BC1463"/>
			<stop  offset="0.7641" style="stop-color:#BF1A63"/>
			<stop  offset="0.8142" style="stop-color:#C62A63"/>
			<stop  offset="0.8709" style="stop-color:#D34663"/>
			<stop  offset="0.9327" style="stop-color:#E56C62"/>
			<stop  offset="0.9978" style="stop-color:#FB9C62"/>
			<stop  offset="1" style="stop-color:#FC9E62"/>
		</radialGradient>
		<path class="st1" d="M420.9,240.1c-3.1,0.8-6.1,1.7-9.1,2.7c-11,3.6-21.6,8.4-31.8,13.8c-15.4,8.3-29.5,18.8-42.6,30.4
			c-4.1,3.6-8.1,7.4-12,11.2c-26.1,25.5-49,55.2-61.4,89.5c-2.5,6.9-3.8,13.9-4.7,21c-0.6,4.7-1.2,9.4-1.8,14.3
			c20.4-33.2,47.6-62.3,79.3-84.9c20.3-14.5,42.7-26.5,60.5-44.1c10.1-10,18.5-21.5,27.6-32.3c5.9-6.9,13-14.8,21.5-19.1
			c3.9-2,8.2-3.2,12.7-3.3c-1.6-0.8-3.3-1.4-4.9-1.9C443.1,234.1,432,237.2,420.9,240.1z M487.8,235c-1.7,0.8-3.4,1.6-5.1,2.6
			c-13.2,7.5-25.5,16.9-33.9,29.5c-0.3,0.4-0.6,0.9-0.9,1.3c-9.6,14.9-17.6,33.9-33.2,43.6c-16.9,10.6-36.1,15.5-51,29.3
			c-7.9,7.3-14.2,16.1-22.1,23.4c-8.1,7.5-18.1,12.7-27,19.2c-5,3.7-9.7,7.9-14.5,11.8c-2.6,2.2-5,4.6-7.1,7.2
			c-1.4,1.8-3.2,6.3-5,7.5c0.6-0.3,1.1-0.7,1.7-1c16.5-10.5,33.9-19.9,52.3-26.1c6.6-2.2,13.2-5.2,18.5-9.8c6-5.2,8-12.3,12.7-18.3
			c6.4-8.2,16-10.8,25.7-12.6c2.8-0.5,5.6-1,8.3-1.5c12.1-2.3,24.3-5.7,34.4-12.9c10.3-7.4,17.5-19.6,25.5-29.2
			c21.9-26.4,51.1-46.7,83.5-58.1c-3.2-2.2-6.6-4.1-10.1-5.7C523.9,227.5,504.6,227.3,487.8,235z M288.9,424
			c-4.8,4.1-9.4,8.5-13.6,13.2c-9.2,10.2-17.1,21.5-24.7,33c-6.9,10.4-10.9,21.5-11.1,34.2c-0.1,10.6,1.9,21,4,31.3
			c2.5,12.3,5,24.7,7.4,37c1.1,5.4,2.2,10.9,5,15.7c1.7,2.9,4.1,5.5,6.9,7.3c1.8,1.1,3.8,1.8,6,2c-4.1-9.5-4.2-19.9-4.3-30.2
			c0-0.2,0-0.5,0-0.7c-0.1-15,0.7-30.2,2.2-45.2c3-30.7,18.2-58.5,31.4-85.9c5.1-10.5,10.4-21.4,19.3-28.9
			C307.1,410.7,297.5,416.8,288.9,424z M588.2,247.2c-1.7,0.3-3.4,0.7-5.1,1c-10.6,2.3-21,5.5-30.9,9.9c-10,4.4-19.5,10.1-28,17
			c-5.2,4.2-9.9,8.9-14.1,14c-9.8,11.9-15.6,26.4-24.7,38.7c-8.7,11.7-18.7,23.4-32.3,29.5c-11.4,5.1-24.1,5.8-36.4,8.1
			c-8.5,1.6-16.9,4.1-25,7.4c-18.4,7.4-35.3,18.5-49.9,31.9c-7.4,6.7-14.2,14.1-20.4,21.9c-2.8,3.5-6.3,6-8.8,9.8
			c-3.2,4.7-6,9.7-8.4,14.8c-10.9,22.7-17.2,48.4-21.4,73.2c-3.6,21.7-5.2,43.7-4.6,65.6c0.3,11,1.1,21.9,2.5,32.8
			c1.2,9.4,2.5,20.2,7.5,28.5c2.6,4.4,6.3,8.2,10.7,10.8c3,1.8,6.4,3,9.9,3.4c-1.1-0.1-0.3-11.5-0.2-12.7c0.4-3.6,1.9-6.9,2.8-10.4
			c1.8-7.2,4.6-14.2,8.2-20.7c4.5-8.1,10.1-15.6,16.9-21.9c5.8-5.5,10.9-11.3,19.6-9.4c5,1.1,9.9,3.6,15,3.5
			c6.6-0.1,12.3-4.4,17.2-8.7c18.6-16.2,34.2-35.9,45.6-57.7c7.1-13.6,12.7-28.4,12.7-43.8c0-15.9-6.3-31.5-16.7-43.5
			c-4.9-5.6-10.7-10.5-17.6-13.4c-6.9-2.8-14.8-3.4-21.7-0.6c-6.6,2.7-11.5,8-15.3,14.1c-2,3.2-3.7,6.6-5.2,10
			c-9,20.2-14.2,42-15.3,64.1c-0.2,4.6-0.1,9.7,3.2,12.9c3,2.9,7.3,3,11.5,2c1.8-0.5,3.6-1.2,5.2-2c8.2-4.3,15-11,19.4-19.1
			c2.4-4.4,4.1-9.3,3.8-14.3c-0.3-5-2.7-10.1-7.1-12.6c-4.3-2.5-10.6-1.8-13.6,2.2c5.3-6.8,10.8-13.7,18.4-17.6
			c7.6-3.9,18-3.8,23.7,2.5c1.2,1.3,2.1,2.8,2.8,4.4c1.4,3.1,2,6.6,2.4,10.1c1.3,13.3-1.1,27.1-7.8,38.7
			c-6.7,11.6-17.9,20.7-30.9,23.8c-9.7,2.4-20,1.5-29.6,4.2c-12.5,3.5-22.6,12.9-30.3,23.3c-7.8,10.4-13.6,22.1-21,32.8
			c0.9-1.7,1.7-3.4,2.5-5.1c9.4-21,12.6-44.3,17.3-66.9c5-24.5,9.8-49.2,20-72c6.9-15.6,16.5-30.3,29.2-41.8
			c6.1-5.5,12.8-8.9,19.7-13.2c8.1-5,15-7.3,24.8-6.2c9.5,1.1,18.8,4.4,28.4,4.4c16.3-0.1,31.2-10,41.4-22.6
			c10.9-13.5,17.6-30.2,23.5-46.3c4.3-11.8,6.3-24.6,12.4-35.5c8.6-15.4,23.9-24.9,40-31.1c16.6-6.4,36.4-12.9,54.2-10.6
			c0.9,0.1,1.8,0.3,2.7,0.4c-1-0.2-3.4-3.2-5-5.1c-0.5-0.5-0.9-1-1.2-1.2c-2.5-1.9-5.3-3.5-8.2-4.7
			C599.9,245.4,595,245.9,588.2,247.2z M364.5,621.5c-11.9,1.5-23.9,6.1-32.6,14.1c-9.9,9-16.6,21.4-18.7,34.5
			c-0.9,5.8,4.1,14,7.9,18.5c2.4,2.9,6.6,5.8,11.1,7c2.5,0.7,5.1,0.9,7.4,0.3c1.5-14.5-1.7-28.9,2.3-42.9c4-14,13.2-27.6,27.1-31.9
			C367.5,621.1,366,621.2,364.5,621.5z M475.8,428.6c-3.4,7.9-4.9,16.4-5.6,25c-1.1,14,0.6,27.4,3,41.2c1,5.6,1.9,11.1,1.4,16.9
			c-0.2,1.7-2.7,15.9-4.9,16.2c1.2,0.1,2.5,0.1,3.7-0.1c2.3-0.4,4.6-1.3,6.5-2.8c10.9-8.4,13.2-26.4,13.3-39
			c0.1-13-2.1-25.9-3.2-38.8c-1.1-12.9-1-26.2,3.4-38.4c0,0,0-0.1,0.1-0.1C486.2,413.2,479.2,420.7,475.8,428.6z M454.5,558.6
			c-4.3,0.9-8.2,2.1-10.9,3.1c-11.1,3.8-21.3,10.4-29.1,19.1c-8.7,9.8-14.5,21.8-23.3,31.5c1.2,0.2,2.4,0.3,3.6,0.3
			c6.1,0.3,12.3-1,17.9-3.6c6.7-3.1,10-8.1,15.3-12.8c4.4-4,8.5-8.2,12.7-12.4c11-10.9,22.3-20.2,37.4-24.4
			C472.8,555.8,463,556.7,454.5,558.6z M617.5,268.5c-4.9,0.9-9.8,2-14.7,3.7c-9.1,3.1-17.8,7.4-26,12.7
			c-5.4,3.5-10.6,7.3-15.4,11.6c-9.8,8.5-18.4,18.4-25.4,29.3c-21.6,33.6-28.9,74.8-26.9,114.7c1.1,20.1,4.3,40.2,3.3,60.3
			c-1.1,20.1-7.5,40.5-22.3,54.2c8.2,2,16.8,0.6,24.4-3.1c5.8-2.8,11-6.8,15.1-11.7c9.6-11.3,13.9-26.2,15.2-41
			c1.1-12.7,0.9-25.5-0.2-38.1c-1-11.5-3.3-21.9,1-33.2c2.4-6.4,7.2-12.2,13.7-14.2c0.3-0.1,0.7-0.2,1.1-0.1c0.1,0,0.2,0.1,0.3,0.2
			c0.2,0.3,0.1,0.7,0.1,1c-0.9,5.4-2.4,10.9-2.9,16.3c-0.4,4.5,1.1,9.2,3,13.3c3.1,6.9,7.9,12.9,11.9,19.3
			c4.1,6.4,7.5,13.5,7.6,21.1c0,8.5-4.2,16.4-6.4,24.7c-2.4,9.4-2.1,19.5-5.8,28.6c-3.8,9.3-13.2,15.1-22,19.2
			c-32.8,15.4-72.6,17.4-99.6,41.5c-8.5,7.6-15.6,17.3-26,22.1c-10,4.6-21.6,3.9-32.1,7.2c-18,5.6-30.8,22.7-35,41
			c-3.9,16.9-4,40.8,10.3,53.1c4.8,4.1,10.6,6.9,16.5,9.5c14.1,6.3,28.8,11.4,43.7,15.2l0,0c1.4,0.4,2.7,0.7,4.1,1
			c3.1,0.8,7,2.1,10.2,2.2c3.5,0,7.6-1.5,11.1-2.3c-3.2,0.4-9.8-4.2-12.3-5.7c-4-2.5-7.5-6.1-10.3-10c-7.1-9.9-11.1-21-9.9-33.5
			c1.8-18.8,12.1-35.7,24.5-49.9c25.3-28.9,60.7-48.9,98.5-55.7c5.6-1,11.5-2.5,17.2-3c4.2-0.3,8.2,0.3,12.4-1.1
			c8.8-2.8,15.9-10.2,19.7-18.4c5.3-11.5,5.9-24.8,5.7-37.3c-0.1-13.1,2.9-26.2,8.8-37.8c2.3-4.5,5-8.9,5.4-13.9
			c0.5-5.2-1.6-10.3-4.5-14.6c-2.9-4.3-6.7-7.9-10.1-11.8c-5.9-6.8-10.9-14.4-13.5-23c-4.2-13.4-0.5-25.9,5-38.3
			c5.3-11.7,13-22.2,22.3-30.9c4.3-4,8.9-7.7,13.9-10.9c13.7-8.9,29.2-14.7,45.2-17.9c14.9-2.9,30.7-6.5,41.6,6.5
			c6.2,7.4,10.8,16.3,12.1,25.9c1.3,9.5-0.8,19.7-6.8,27.3c-5.9,7.6-15.8,12.2-25.4,11c-4.1-0.5-8.9-3.6-7.9-7.6
			c0.8-3.5,5.1-4.5,7.9-6.7c5.8-4.4,4.7-14.2-0.6-19.2c-5.3-5-13.3-6-20.6-5.5c-12.2,0.8-24.1,5.3-33.9,12.7c0,0,0,0,0,0
			c-3.6,2.7-6.9,5.8-9.9,9.3c-5.8,6.9-10.3,15.7-9.2,24.7c1.3,10.4,9.7,18.4,18.5,24.1c11.9,7.6,25.8,12.3,39.8,13.1l0,0
			c9.1,0.6,18.2-0.5,26.9-3.5c16-5.5,29.6-18.1,36-33.5c2-4.7,3.3-9.7,3.8-14.8c0.1-1.2,0.2-2.4,0.2-3.6c0.3-13.5-0.7-26.2-5.6-38.8
			c-7.2-18.4-17.4-36.3-33-48.4c-4.4-3.4-9.1-6.4-14.1-8.7c-4.7-2.2-9,0.1-13.8,1.5l-2.6,0.7c-5.1,1.4-10.3,2.9-15.4,4.5
			c-20.7,6.4-41,14.3-58.8,26.7c-0.9,0.6-1.8,1.3-2.7,2c-11.4,8.3-21.4,18.5-32.7,26.9c-1.1,0.8-4.9,2.3-5.1,3.6
			c0-0.1,0-0.3,0.1-0.4c3.1-18.8,15.5-35.1,27.5-49.4c7.6-9.1,15.5-18.4,25.9-24c8.7-4.7,18.1-8,27.8-9.9c4.8-0.9,9.6-1.2,14.5-1.8
			c2.1-0.2,4.1-0.4,6.2,0c0.4,0.1,3.5,1.3,4.9,2c0.4,0.2,0.7,0.4,0.7,0.4c1.1-0.9,1.3-2.6,1-4c-0.4-1.4-1.3-2.6-2.3-3.6
			c-6.2-6.6-15.7-7.4-24.8-7.8c-2.3-0.1-4.6,0.1-6.9,0.5C626.3,267.1,621.8,267.7,617.5,268.5z M661.7,476.1
			c-1.1,0.4-2.1,0.9-3.2,1.3c-11.7,5-23.2,11.2-31.6,20.7c-8,8.9-12.7,19.8-15.2,31.5c-2.5,11.5-2.9,23.7-2.2,35.4
			c0.3,5.5,0.9,11.2,3.2,16.1c0.6,1.3,1.3,2.6,2.2,3.7c5.4,7.1,15.2,9.5,24.2,9.1c8.9-0.4,17.8-3,25.4-7.7c3.9-2.4,7.6-5.4,10.7-8.8
			c9.1-10.1,13.6-24.3,11.4-37.7c-1.7-10-8.1-20.2-18-22.6c-7.2-1.7-14.7,0.8-21.6,3.4c4.3-7.1,11.1-12.6,19-15.1
			c7.9-2.4,16.8-1.6,24,2.5c9.1,5.2,14.6,15,17.7,25.1c2.1,7,3.2,14.5,2.9,21.9c-0.2,5.8-1.3,11.6-3.4,17.1
			c-6.9,18.3-22.4,29-39.3,37.2c-9.6,4.6-20.8,7.3-31.2,9.6c-11,2.4-22.4,3.7-33.7,2.4c-1.4-0.1-2.7-0.3-4-0.6
			c-5.1-0.9-10.1-2.3-15.1-3.9c-3.9-1.2-7.8-2.4-11.8-3.4c-4-1-8-1.7-11.9-2c-18.4-1.6-36.2,4.2-51.4,15.5c-0.8,0.6-1.6,1.2-2.3,1.8
			l0,0c-19.2,14.9-34,35.4-42.3,58.2c-3.6,9.9-5.9,20.9-2.9,31c3,10.1,13,18.7,23.5,17.1c4.8-0.8,10.2-3.5,14.3-0.8
			c3.4,2.2,3.9,7.3,2.1,11c-1.7,3.7-12,6.1-15.3,8.5c7.8,7.6,12.1,8.8,16.8,9.9c5.1,1.2,9.5,1.7,14.3,1.7c8.7,0.2,17.5,0.3,26-1.6
			c0.3-0.1,0.6-0.1,0.9-0.2c8.8-2.1,17.3-6.8,22.1-14.3c4.4-6.9-2.4-16.9-8.1-22.7c-7.7-7.9-19.8-11.4-25-21.2
			c-3.6-6.7-1.9-14.3,0.5-21.1c2.6-7.2,7.7-13.3,13.2-18.4c9.2-8.6,20-15.4,31.6-20.3c10.7-4.5,23.1-8.5,34.8-6.9
			c11.1,1.6,21.2,7.1,31.9,10.6c10.7,3.6,22,5.1,33.2,4.7c10.3-0.4,22.4-1.8,32-5.6c15.6-6.3,26.2-20.9,34.2-35.7
			c8.9-16.5,15.6-34.4,18.2-52.9c2.6-18.6,1.1-37.9-5.8-55.3c-4.5-11.4-11.5-22.1-21.7-29c-10.5-7.1-23.6-9.5-36.2-8.7
			C685.6,467.4,673.4,471.3,661.7,476.1z M597.8,668.5c-7.5,2.2-14.3,5.8-20.9,10.7c-6,4.4-12.1,11.7-9.3,18.6
			c2,4.8,7.5,7.1,12.6,8.1c10.5,2.1,19.7,2.7,24.9,13.4c2.7,5.6,2.7,10.9-1.3,15.6c-2.1,2.4-11.3,7.7-15,9.1
			c23.8,5.3,41.7-4.8,58.1-19.2c2.9-2.5,5.7-5.2,8.5-7.9c8.3-8.1,18.4-13.4,28-19.5c1.8-1.1,3.6-2.3,5.3-3.5
			c5.4-3.8,9.5-10.9,12.8-16.6c1.2-2,5.7-9.6,6.5-15.5c-22.7,4.5-44.1,6.6-67.2,5.8c-10.1-0.3-20.2-1.7-30.2-1.2
			C606.1,666.6,601.8,667.3,597.8,668.5z"/>
		<path class="st2" d="M610.6,666.4c10.1-0.5,20.1,0.8,30.2,1.2c23.1,0.8,44.5-1.3,67.2-5.8c-0.8,5.9-5.3,13.5-6.5,15.5
			c-3.3,5.6-7.4,12.8-12.8,16.6c-1.7,1.2-3.5,2.4-5.3,3.5c-9.6,6.1-19.6,11.4-28,19.5c-2.8,2.7-5.6,5.4-8.5,7.9
			c0.4-1.3,0.8-2.5,0.9-3.6c0.5-4.6-0.4-9.2-1.2-13.7c-1-5.3-1.9-10.7-4.8-15.2c-4.1-6.4-11.4-10.1-18.6-12.5
			c-7.2-2.4-14.9-3.8-21.6-7.3c-1.7-0.8-3.4-2.1-3.8-3.8C601.8,667.3,606.1,666.6,610.6,666.4z"/>
		<path class="st2" d="M698.2,466.6c12.6-0.9,25.8,1.6,36.2,8.7c10.1,6.9,17.2,17.6,21.7,29c6.9,17.4,8.4,36.8,5.8,55.3
			c-2.6,18.6-9.3,36.4-18.2,52.9c-8,14.8-18.6,29.4-34.2,35.7c-9.6,3.9-21.7,5.2-32,5.6c-11.2,0.4-22.5-1.1-33.2-4.7
			c-10.6-3.5-20.8-9-31.9-10.6c-11.7-1.7-24.1,2.4-34.8,6.9c-11.6,4.9-22.4,11.7-31.6,20.3c-5.5,5.1-10.7,11.2-13.2,18.4
			c-2.5,6.8-4.1,14.5-0.5,21.1c5.2,9.7,17.3,13.3,25,21.2c5.7,5.8,12.6,15.9,8.1,22.7c-4.9,7.6-13.4,12.2-22.1,14.3
			c-0.3,0.1-0.6,0.1-0.9,0.2c4.3-2.6,7.5-7.9,7.5-13.1c0-8.3-5.3-15.6-11.4-21.3c-6-5.7-13-10.5-17.8-17.2
			c-11.9-16.5-7.1-41,6.9-55.7c14-14.7,34.9-21,55.1-22.4c20.2-1.4,40.5,1.4,60.8,1.9c20.3,0.5,41.4-1.5,59-11.7
			c23.6-13.6,37.3-40,42.5-66.7c3.4-17.6,3.9-32.4-5.2-48.7c-2.7-4.8-5.9-9.3-10.2-12.7c-5.1-4.1-31.6-10.3-26.6,4.1
			c1.8,5.1,5.2,9.7,7,14.9c4.5,12.8,4.5,27.1,0.2,39.9c0.3-7.4-0.7-14.8-2.9-21.9c-3-10-8.6-19.8-17.7-25.1
			c-7.2-4.1-16.1-4.9-24-2.5c-7.9,2.4-14.8,8-19,15.1c7-2.5,14.4-5.1,21.6-3.4c9.9,2.4,16.3,12.5,18,22.6
			c2.2,13.4-2.3,27.6-11.4,37.7c-3.1,3.4-6.7,6.4-10.7,8.8c3.6-4.6,6.1-10,7.1-15.7c2.1-11.3-1.6-23.5-9.6-31.8
			c-5.4-5.6-11.8-6.2-19.1-8c-1-0.2-2.2-0.5-2.9-1.4c-1.2-1.3-0.8-3.4-0.3-5.1c2.5-8.3,5.8-14.3,13.4-19.1c5-3.1,10.5-5.3,15.8-7.7
			c4.4-2,9.3-5.1,9.2-9.9c-0.1-4.4-4.6-7.5-8.9-8.5c-3.5-0.8-7.3-0.8-10.7-1.8c1.1-0.5,2.1-0.9,3.2-1.3
			C673.4,471.3,685.6,467.4,698.2,466.6z"/>
		<path class="st2" d="M655.5,305.1c0,0,0.1,0.1,0.1,0.2c1.5,2.9-1,6.3-0.6,9.6c0.6,4.6,6.1,6.5,10.6,7.2
			c11.9,1.6,24.4,0.9,35.3,5.9c10.9,5,18.8,15.2,22.6,26.6c3.8,11.3,4,23.6,2.3,35.4c-0.5,3.7-1.2,7.5-0.8,11.2
			c0.4,3.7,2.1,7.5,5.3,9.5c1.7,1,3.8,1.6,5.7,2.3c-6.4,15.4-20.1,28-36,33.5c-8.7,3-17.8,4.1-26.9,3.5c4.8-1.7,9.3-4,13.4-6.7
			c4.9-3.2,9.7-7.9,9.6-13.8c-0.1-7.3-4.5-7.9-9.6-10.4c-6.5-3.1-12.3-8.6-16.5-14.3c-1.6-2.2-3.1-4.7-2.7-7.4
			c0.7-4.9,7.2-7,8.6-11.8c1.1-3.6-1.4-7.6-4.8-9.4c-3.4-1.8-7.3-1.9-11.1-1.7c-8.9,0.3-17.7,1.7-26.2,4.1
			c9.8-7.4,21.7-11.9,33.9-12.7c7.3-0.5,15.2,0.6,20.6,5.5c5.3,5,6.5,14.8,0.6,19.2c-2.8,2.2-7.1,3.2-7.9,6.7c-0.9,4,3.8,7,7.9,7.6
			c9.5,1.3,19.4-3.4,25.4-11c6-7.6,8.1-17.8,6.8-27.3c-1.3-9.6-5.9-18.5-12.1-25.9c-10.9-13-26.7-9.4-41.6-6.5
			c-16,3.1-31.5,8.9-45.2,17.9c-4.9,3.2-9.6,6.9-13.9,10.9c-9.3,8.7-17,19.3-22.3,30.9c-5.6,12.4-9.2,24.9-5,38.3
			c2.7,8.6,7.7,16.2,13.5,23c3.4,3.9,7.1,7.6,10.1,11.8c2.9,4.3,5,9.4,4.5,14.6c-0.5,5-3.2,9.4-5.4,13.9
			c-5.9,11.6-8.9,24.7-8.8,37.8c0.1,12.5-0.4,25.8-5.7,37.3c-3.8,8.2-10.9,15.6-19.7,18.4c-4.2,1.3-8.1,0.7-12.4,1.1
			c-5.7,0.5-11.6,2-17.2,3c-37.9,6.8-73.2,26.8-98.5,55.7c-12.4,14.2-22.7,31.1-24.5,49.9c-1.1,12.5,2.9,23.6,9.9,33.5
			c2.8,3.9,6.2,7.5,10.3,10c2.4,1.5,9.1,6.1,12.3,5.7c-3.5,0.8-7.5,2.3-11.1,2.3c-3.2,0-7.1-1.4-10.2-2.2c-1.4-0.3-2.7-0.7-4.1-1
			l0,0c-6.6-7.5-12.4-15.1-16-25.8c-5.8-17.5-6-39.7,1.9-56.6c5.1-10.9,14.7-18.9,24.1-26.4c27.9-22.6,57.9-46.2,93.6-49.7
			c24.9-2.5,58.7-1.3,58.7-34.7c0-10.1-2.3-20.2-0.9-30.2c1.6-11.2,7.7-21.3,10.3-32.3c3-12.7-2.1-19.9-8-30.2
			c-5.6-9.8-11.7-21.1-15-31.9c-5.1-16.7-1-36,10.5-49.1c6.5-7.4,15.1-13,20.7-21c7-10,7.5-26.3-7.1-27.2
			C614.5,319.5,634.8,311.5,655.5,305.1z"/>
		<path class="st2" d="M560.1,413.3c-0.3,0.2-0.5,0.3-0.8,0.4c-2.2,0.8-4.2,1.7-6,3.2c-3.5,2.8-6.1,6.8-7.7,11
			c-4.2,11.3-2,21.7-1,33.2c1.1,12.7,1.3,25.4,0.2,38.1c-1.3,14.8-5.6,29.7-15.2,41c-4.1,4.9-9.4,8.9-15.1,11.7
			c7.2-8.7,11.3-20.1,13-31.5c2.1-14.4,0.9-29,0.5-43.5c-0.5-20.1,1.3-41.1,13.5-57.9c3.4-4.7,7.8-8.7,13.2-10.7
			c1.2-0.4,2.4-0.8,3.6-0.7c1.2,0.1,2.5,0.8,3,1.9C562,411.1,561.2,412.5,560.1,413.3z"/>
		<path class="st2" d="M617.5,268.5c0.9,1,1.5,2.3,2.1,3.6c1,2,2.3,3.4,4.5,3.9c1.8,0.4,3.7,0.2,5.5,0.1c9.9-0.8,19.8-0.2,29.5,1.8
			c1.7,0.4,3.8,1.3,4,2.9c-1.4-0.7-4.5-1.9-4.9-2c-2.2-0.4-4.1-0.3-6.2,0c-4.8,0.6-9.7,0.8-14.5,1.8c-9.7,1.8-19.1,5.2-27.8,9.9
			c-10.4,5.7-18.3,15-25.9,24c-12.1,14.3-24.4,30.6-27.5,49.4c-1.1,2.4-2.5,4.6-4.6,6.2c-1.1-5.6-0.2-11.3,1.6-16.7
			c2.4-7.1,6.2-13.5,10-19.9c5.1-8.8,10.8-17.5,13.8-27.2c0.5-1.6,0.9-3.3,0.3-4.8c-1.1-2.8-4.8-3.2-7.8-3.1c-2.9,0.1-6.3,0.2-8.1-2
			c4.8-4.2,10-8.1,15.4-11.6c8.1-5.2,16.8-9.5,26-12.7C607.6,270.5,612.5,269.4,617.5,268.5z"/>
		<path class="st2" d="M368.9,621c-13.9,4.3-23.1,17.9-27.1,31.9c-4,14-0.8,28.4-2.3,42.9c-2.3,0.6-4.9,0.4-7.4-0.3
			c0.2-2.8,0.8-5.7,0.9-8.5c0.3-5,0.7-9.9,1.3-14.8c0.6-5.5,1.5-11.1,2.4-16.6c1.5-8.3,3.6-17,9.5-23.1c3.4-3.6,7.9-6,12.2-8.2
			c2-1,4-2.1,6.1-2.9C366,621.2,367.5,621.1,368.9,621z"/>
		<path class="st2" d="M412.5,426.9c6.9,2.8,12.7,7.7,17.6,13.4c10.4,12,16.7,27.6,16.7,43.5c0,15.3-5.6,30.2-12.7,43.8
			c-11.5,21.8-27,41.5-45.6,57.7c-5,4.3-10.7,8.6-17.2,8.7c-5.2,0.1-10-2.5-15-3.5c-8.7-1.9-13.9,3.9-19.6,9.4
			c-6.7,6.4-12.4,13.8-16.9,21.9c-3.6,6.5-6.4,13.5-8.2,20.7c-0.9,3.5-2.3,6.8-2.8,10.4c-0.1,1.2-0.9,12.6,0.2,12.7
			c-3.5-0.4-6.9-1.6-9.9-3.4c0-0.3,0-0.7,0-1.1c0.1-6,1.8-12.3,3.3-18.2c3.6-14.1,9.8-27.5,18.1-39.4c4.3-6.2,9.9-11.5,15-17
			c0.4-0.4,0.8-0.9,1.2-1.3c5.2-5.3,11-10.1,17.9-13.1c2.1-0.9,4.4-1.7,6.7-1.6c2.3,0.1,4.7,1.1,5.9,3.1c1.8,3,0.6,7.6,3.3,9.9
			c2.6,2.3,6.8,0.5,9.6-1.5c15.7-11,28.7-27.3,39.8-42.6c8.2-11.3,15.6-23.5,19.2-36.9c3.6-13.5,3-28.5-4.1-40.5
			c-7.1-12-21.4-20.2-35.1-17.7c-4.3,0.8-8.5,2.5-12.9,2.8c-4.4,0.3-9.4-1.4-11.1-5.4c-0.2-0.4-0.3-0.8-0.4-1.2
			c3.8-6.1,8.7-11.4,15.3-14.1C397.7,423.5,405.6,424.1,412.5,426.9z"/>
		<path class="st2" d="M454.2,237.4c-7.3,2.3-14.5,4.5-21.8,6.7c-3.7,1.1-10.6,4.9-14.4,4.1c-2.6-0.6-4.3-3.3-6.2-5.5
			c-11,3.6-21.6,8.4-31.8,13.8c-15.4,8.3-29.5,18.8-42.6,30.4c6.4-1.1,12.8-1.5,19.3-1.3c3.1,0.1,6.4,0.5,8.6,2.7
			c2.5,2.5,2.5,6.8,0.8,10c-1.6,3.2-4.4,5.6-7.2,7.8c-3.3,2.7-6.7,5.5-10,8.2c-20.9,17.1-41.9,34.3-60.2,54.3
			c-9,9.8-17.4,20.3-24.6,31.5c-1.8,2.8-3.3,5.6-4.9,8.5c-0.6,4.7-1.2,9.4-1.8,14.3c20.4-33.2,47.6-62.3,79.3-84.9
			c20.3-14.5,42.7-26.5,60.5-44.1c10.1-10,18.5-21.5,27.6-32.3c5.9-6.9,13-14.8,21.5-19.1c3.9-2,8.2-3.2,12.7-3.3
			C457.5,238.5,455.8,237.9,454.2,237.4z M495.4,243.5c-2.2-3.4-3.7-7.2-7.7-8.6c-1.7,0.8-3.4,1.6-5.1,2.6
			c-13.2,7.5-25.5,16.9-33.9,29.5c4.9-1,9.8-2.1,14.8-3.1c4.1-0.9,9.5-1.3,11.6,2.4c1.5,2.6,0.4,6-0.9,8.7
			c-5.7,12.2-14.9,22-23.2,32.4c-14.3,18-32.1,25.9-54.2,30.7c-11,2.4-22.5,5.5-30.4,13.5c-7.9,8-11.3,20-20.3,26.7
			c-6.6,5-15.2,6.2-23.1,8.8c-12.9,4.1-24.6,11.9-33.4,22.3c16.5-10.5,33.9-19.9,52.3-26.1c6.6-2.2,13.2-5.2,18.5-9.8
			c6-5.2,8-12.3,12.7-18.3c6.4-8.2,16-10.8,25.7-12.6c2.8-0.5,5.6-1,8.3-1.5c12.1-2.3,24.3-5.7,34.4-12.9
			c10.3-7.4,17.5-19.6,25.5-29.2c21.9-26.4,51.1-46.7,83.5-58.1c-3.2-2.2-6.6-4.1-10.1-5.7c-7.5,1.7-14.2,5.8-21.3,9
			C511.8,247.4,500.8,251.7,495.4,243.5z M288.9,424c-0.3,2.7,0.3,5.5,0.5,8.2c0.8,11.4-5.5,21.9-10.6,32.1
			c-5.5,10.9-10,22.4-13.3,34.1c-5.9,20.9-8.3,42.7-7.1,64.3c0.6,10.9,2.9,21.2,4.4,31.9c0,0.3,0.1,0.7,0.1,1c1.8,1.1,3.8,1.8,6,2
			c-4.1-9.5-4.2-19.9-4.3-30.2c0-0.2,0-0.5,0-0.7c-0.1-15,0.7-30.2,2.2-45.2c3-30.7,18.2-58.5,31.4-85.9
			c5.1-10.5,10.4-21.4,19.3-28.9C307.1,410.7,297.5,416.8,288.9,424z M552.2,258.2c-10,4.4-19.5,10.1-28,17c-0.1,0.4-0.1,0.7,0,1
			c0.2,0.7,1,1.1,1.6,1.5c2,1.5,2.6,4.5,2,7c-0.5,2.5-2,4.7-3.4,6.8c-9.6,15-17.8,30.9-24.4,47.4c-6,14.9-9.9,29.3-21.6,41.2
			c-7.4,7.5-16.9,13.1-27.3,15.2c-10.4,2.2-21.9,5.9-31.5-1c-2.3-1.7-4.2-3.9-6.7-5.3c-4.9-2.8-11-1.8-16.4-0.3
			c-14.9,4.3-27,12.5-38.3,22.9c-14.2,13-22.5,31.5-28.6,49.5c-16.2,47.6-26.2,97.4-29.6,147.6c2.7-2.5,5.1-5.3,7.4-8.3
			c9.4-21,12.6-44.3,17.3-66.9c5-24.5,9.8-49.2,20-72c6.9-15.6,16.5-30.3,29.2-41.8c6.1-5.5,12.8-8.9,19.7-13.2
			c8.1-5,15-7.3,24.8-6.2c9.5,1.1,18.8,4.4,28.4,4.4c16.3-0.1,31.2-10,41.4-22.6c10.9-13.5,17.6-30.2,23.5-46.3
			c4.3-11.8,6.3-24.6,12.4-35.5c8.6-15.4,23.9-24.9,40-31.1c16.6-6.4,36.4-12.9,54.2-10.6c0.9,0.1,1.8,0.3,2.7,0.4
			c-1-0.2-3.4-3.2-5-5.1c-1-0.1-2-0.2-3-0.2c-6,0-11.9,1.5-17.9,1c-4.7-0.4-9.7-2.7-12.1-6.5C572.5,250.6,562.1,253.8,552.2,258.2z
			 M387.3,464.6c-4.8,3-8.7,7.3-11.3,12.3c-1.3,2.6-2.4,5.3-3,8.2c-0.4,1.7-0.1,5.2-2.2,5.9c3.9-1.3,11.5-4.1,15.7-2.1
			c5.3,2.6,4,11.1,2.6,15.5c-2.1,6.7-5.8,12.1-10.4,17.2c-2.4,2.6-4.3,4.9-7.4,6.8c-0.3,0.2-0.8,0.5-1.5,0.9c1.8-0.5,3.6-1.2,5.2-2
			c8.2-4.3,15-11,19.4-19.1c2.4-4.4,4.1-9.3,3.8-14.3c-0.3-5-2.7-10.1-7.1-12.6c-4.3-2.5-10.6-1.8-13.6,2.2
			c5.3-6.8,10.8-13.7,18.4-17.6c7.6-3.9,18-3.8,23.7,2.5c1.2,1.3,2.1,2.8,2.8,4.4c-0.4-3.7-1.6-7.2-4.5-9.4
			C409.5,457,395.6,459.4,387.3,464.6z M485.1,428.3c-2.4,11.4-1.7,23.3-0.6,34.9c1.1,11.7,2.5,23.4,1.4,35
			c-0.6,6.5-1.9,13.8-5,19.6c-1.5,2.8-3.3,5.5-5.5,7.8c-0.4,0.4-1.1,1.2-1.9,2.1c2.3-0.4,4.6-1.3,6.5-2.8
			c10.9-8.4,13.2-26.4,13.3-39c0.1-13-2.1-25.9-3.2-38.8c-1.1-12.9-1-26.2,3.4-38.4C489.3,414.5,486.6,421.4,485.1,428.3z
			 M454.5,558.6c1.5,1,2.4,3,2.2,4.8c-0.2,2.4-1.8,4.5-3.7,6c-1.9,1.5-4.2,2.4-6.3,3.6c-10.1,5.4-17.6,14.5-25.6,22.6
			c-5.6,5.7-11.8,11.1-19.2,14.3c-1.5,0.7-5.4,1.2-7.2,2.7c6.1,0.3,12.3-1,17.9-3.6c6.7-3.1,10-8.1,15.3-12.8
			c4.4-4,8.5-8.2,12.7-12.4c11-10.9,22.3-20.2,37.4-24.4C472.8,555.8,463,556.7,454.5,558.6z"/>
		<path class="st3" d="M469.9,721c-1.9-5-0.6-11.1,0-16c2.3-19.3,10.3-38.4,22.7-53.5c11.9-14.5,25.3-25.7,44.8-27.7
			c1.7-0.2,4.1,0.4,4,2.1c-0.1,0.7-0.6,1.3-1.2,1.8c-7.9,7.2-16.9,14-23.7,22.2c-6.9,8.3-13.5,16.9-18.9,26.3
			c-5.8,10.2-10.1,21.6-10.6,33.3c-0.2,3.2,0,6.5-0.8,9.7c-0.8,3.1-2.8,6.2-5.8,7.4c-1.2,0.5-2.5,0.5-3.7,0.2
			C473.6,726,470.9,723.6,469.9,721z M636.2,584.1c5.4-1.6,9.6-6.6,10.2-12.1c0.6-5.6-2.1-10.9-4.7-15.9c-1.5-2.9-3.3-6-6.4-7.1
			c-2.7-0.9-5.6,0-8.1,1.3c-5.3,2.8-9.8,7.5-11.5,13.2C612.3,575.4,624,587.6,636.2,584.1z M623,544.3c2.1-1.3,4.2-3.1,4.4-5
			c0.2-1.9-0.8-7-3.1-7.4c-1-0.2-2,0.5-2.8,1.2c-1.7,1.6-8.4,13.2-3.1,13.2c0.7,0,1.5-0.3,2.1-0.6
			C621.2,545.4,622.1,544.9,623,544.3z M505.8,749c-1.1,2.4-3.9,4.3-5.7,6.1c-0.4,0.4-0.9,0.9-1,1.5c-0.2,1.3,1.3,2.3,2.5,2.7
			c6.4,2.1,15.6,0.9,18.2-6.5c1.2-3.4-0.3-7.2-2-10.4c-0.7-1.3-1.5-2.5-2.6-3.5c-1.1-0.9-2.6-1.6-4-1.3c-2.1,0.4-3.5,2.5-4,4.5
			C506.5,744.3,506.7,747,505.8,749z M581.8,686.7c-2.3,1.6-4.5,3.4-5.6,5.9c-4.2,8.9,13.4,14.9,19.6,11.3c1.9-1.1,2.9-3.3,3-5.5
			c0.2-4.4-2-12.2-6.4-14.3C588.9,682.5,584.9,684.5,581.8,686.7z M424.3,582.9c0.3-0.6,0.7-1.2,0.6-1.9c-0.2-0.9-1.2-1.5-2.1-1.5
			c-0.9,0-1.8,0.4-2.6,0.9c-2.8,1.6-15.6,12.8-11.7,16.7C412.7,601.3,422.9,585.4,424.3,582.9z M360.6,695.1
			c2.3,0.5,4.8-0.6,6.4-2.4c1.6-1.7,2.6-4,3.6-6.2c6-13.8,12.1-27.6,18.1-41.4c0.6-1.5,1.3-3.2,0.5-4.6c-1.1-1.9-4-1.6-6.1-0.8
			c-9.1,3.6-15.7,12-19.4,21.1c-2.6,6.3-4,13-5,19.7C358.2,684.5,354.8,693.8,360.6,695.1z M363.4,710.4c1.3,1.5,3.2,2.7,5.2,2.7
			c2,0.1,4.1-1.2,4.7-3.1c0.5-1.9-0.5-3.9-2-5.1c-1.5-1.2-3.4-1.8-5.3-2.4c-1.2-0.4-2.4-0.7-3.6-0.4
			C358.1,703.3,361.8,708.6,363.4,710.4z M498.7,585.1c1.1-0.6,2.3-1.5,2.3-2.7c0-0.9-0.8-1.6-1.7-1.9c-0.9-0.3-1.8-0.2-2.7-0.1
			c-13.5,1.6-25.4,5.9-36.9,13.1c-4.3,2.7-12.5,7.1-14.2,12.3c-1.2,3.7-0.8,8.2,4.2,7.4c5.2-0.9,9.7-7.3,13.9-10.3
			C474.7,595.6,487,591.5,498.7,585.1z M516.2,577.5c0.8-0.7,1.5-1.8,1.2-2.9c-0.4-1.2-1.9-1.5-3.1-1.6c-2.6,0-10.9,1.1-8.6,5.1
			C507.7,581.8,514,579.6,516.2,577.5z M345.6,557.4c-3.2,1.4-6.2,3.4-8.4,6.1c-1.8,2.2-3.8,6.7,1.2,5.1c6.3-2.1,12.7-4.1,19-6.2
			c2.3-0.7,4.5-1.5,6.9-1.5c2.4-0.1,4.9,0.7,6.4,2.5c1.8,2,2.1,5.1,4.3,6.8c2.8,2.2,6.9,0.5,9.9-1.4c8.5-5.6,15.2-13.3,21.8-20.9
			c2.9-3.4,6.5-7.2,8.1-11.5c0.5-1.2,2.5-8.7,0.5-8.5c-0.5,0.1-0.9,0.5-1.2,1c-2.2,3.2-3.7,6.2-6.6,9c-4.6,4.6-9.3,9-15.3,11.7
			c-9.1,4.1-19,3.8-28.7,4.4C357.3,554.2,351.3,554.9,345.6,557.4z M325.7,656.8c1-0.4,1.8-1.2,2.5-2c2.3-2.5,4.4-5.5,5.4-8.8
			c0.4-1.3,0.6-3.1-0.6-3.9c-1.1-0.7-2.5-0.2-3.6,0.5c-3,1.9-5,4.8-6.1,8C322.6,652.9,321.2,658.5,325.7,656.8z M370.3,521.7
			c1.6-1.8,3.3-3.6,4.4-5.7c1.1-2.1,1.6-4.7,0.7-7c-1.3-3.4-5.1-5-8.4-6.3c-1.2-0.5-2.6-1-3.9-0.6c-1.4,0.4-2.4,1.6-3.2,2.8
			c-2.8,4.6-3.9,10.6-1.4,15.8C361.4,526.8,365.8,526.7,370.3,521.7z M478.6,465.1c-0.2-0.6-0.6-1.2-1.2-1.2c-0.8,0-1.2,1-1.3,1.9
			c-0.4,3.2-2.6,24.6,2.7,23.3C485.1,487.4,480.2,468.8,478.6,465.1z M648.1,429.5c2.3-2.1,3.3-5.3,3.4-8.4c0.1-3.1-0.6-6.2-1.3-9.2
			c-1-4.6-2.1-9.3-4.7-13.3c-2.6-4-7-7.1-11.7-6.8c-10.6,0.7-15.9,16.8-11.2,25.2C627,424.6,638.7,438.2,648.1,429.5z M518,471.2
			c-4.5,11.3-0.9,23.7-1.6,35.4c-0.7,11.7-5.7,22.1-7.7,33.6c-0.1,0.8-0.1,1.8,0.6,2.2c0.9,0.4,1.7-0.7,2.1-1.6
			c6.4-15.2,10.5-32.8,9.7-49.5C520.9,484.5,519.8,477.8,518,471.2z M424.4,391.2c8.2,2.6,17.3,2,25.1-1.7c1.7-0.8,3.7-2.2,3.6-4.1
			c-0.1-1.7-1.7-2.9-3.4-3.2c-1.7-0.3-3.4,0.2-5,0.5c-4.2,0.7-8.5,0.5-12.6-0.7c-2.9-0.9-5.7-2.2-8.7-2.1c-2.6,0.1-6.3,2.1-6.2,5.1
			C417.3,388.2,421.7,390.4,424.4,391.2z M292,574.7c1.1-6.4,1-12.8,1.9-19.3c1.2-8.2,1.6-16.7,2.5-25c1.9-17.3,4.8-34.4,8.7-51.3
			c0.3-1.1,0.3-2.6-0.8-2.9c-6.9-1.9-11.4,19.9-12.5,23.7c-2.9,9.8-5.1,19.7-6.7,29.8c-1.4,8.8-2.3,17.6-2.7,26.5
			c-0.4,8.1-1.1,16.8,2.2,24.4c0.5,1.1,1.2,2.4,2.5,2.6c0.9,0.2,1.9-0.3,2.5-1.1c0.6-0.7,0.9-1.7,1.2-2.6
			C291.3,577.8,291.7,576.3,292,574.7z M246.5,505.3c1.2,1,3.1,1.2,4.5,0.4c1.5-0.9,2.2-2.6,2.8-4.2c3.5-9.2,6.8-18.5,9.8-27.9
			c0.3-1,0.7-2.1,0.6-3.2c-0.1-1.1-0.8-2.2-1.8-2.5c-1.4-0.4-2.7,0.7-3.8,1.7c-4.7,4.8-8.3,10.7-10.6,17
			C246.4,490.5,242.5,501.9,246.5,505.3z M314.3,463.1c0.5-0.7,0.9-1.6,1.3-2.4c3.8-8.1,7.5-16.2,11.3-24.4c0.4-1,0.9-1.9,0.9-3
			c0-1.1-0.4-2.2-1.4-2.6c-1.7-0.8-3.4,0.9-4.5,2.4c-3.7,5.3-8.6,10.7-11.2,16.7c-1.4,3.3-5,8.9-3.7,12.6c0.6,1.8,2.6,3.2,4.5,2.7
			C312.7,465,313.6,464.1,314.3,463.1z M471.8,377.5c0.7-0.9,1.4-2.2,0.9-3.3c-0.5-1.2-2-1.5-3.3-1.5c-2.4-0.1-4.8,0.4-7,1.3
			c-1.5,0.6-3,1.5-3.9,2.8c-0.9,1.3-1.3,3.2-0.5,4.6C460.9,386.5,469.7,380.2,471.8,377.5z M527.3,363.5c0.1,1.2,0.3,2.5,1.2,3.3
			c1.7,1.5,4.4,0,5.8-1.8c5.6-7.2,3.3-17.9,7.6-26c1-1.8,2.3-4,1.2-5.8c-0.9-1.5-3.2-1.6-4.7-0.7c-1.5,1-2.3,2.6-3,4.2
			C531.4,346,526.5,353,527.3,363.5z M317.8,330.3c0.8-1,1.6-2.3,1.2-3.5c-0.6-1.7-3-1.7-4.8-1.3c-11.1,2.8-20.4,11.8-24.4,22.4
			c-0.4,1.1-0.8,2.5,0.1,3.4c1,1.1,2.8,0.4,4-0.3c3.5-2.2,6.1-5.3,9.6-7.6C308.9,339.9,313.8,335.4,317.8,330.3z M329.6,379
			c0.3,4.5,11.9-2.4,13.3-4.1c0.9-1.1,1.4-2.9,0.3-3.7c-0.7-0.5-1.7-0.2-2.6,0.1c-3.4,1.3-6.5,3.1-9.4,5.3
			C330.4,377.2,329.5,378,329.6,379z M420,324.7c1-0.7,2.1-1.8,1.8-3c-0.3-1.1-1.7-1.5-2.9-1.6c-6.3-0.5-12.2,2.6-17.7,5.7
			c-1,0.6-2,1.1-2.7,2.1c-0.7,0.9-0.9,2.3-0.3,3.2c0.5,0.8,1.5,1.1,2.4,1C406.9,331.8,415,328.3,420,324.7z"/>
	</g>
	<g>
		<defs>
			<path id="SVGID_3_" d="M273.7,608.6l-4.9-11.2c-4.6,0.2-9.8-4.5-12.6-8.6L15,886.8l38.7,119.7l100.8-25.8l289-215.5L761.2,423
				l203.5-279.7l-17-146.6L786.3,73.8L592.8,243.2l2.4,3.1c8.9-0.6,17.2,3.9,25.1,12.4l26.7,3L270.8,627.4L273.7,608.6z"/>
		</defs>
		<clipPath id="SVGID_4_">
			<use xlink:href="#SVGID_3_"  style="overflow:visible;"/>
		</clipPath>
		
			<linearGradient id="SVGID_5_" gradientUnits="userSpaceOnUse" x1="177.4361" y1="-468.3315" x2="1043.0743" y2="337.4047" gradientTransform="matrix(-0.1149 -0.9934 0.9934 -0.1149 643.0945 1097.7603)">
			<stop  offset="0" style="stop-color:#FFC23E"/>
			<stop  offset="9.814087e-02" style="stop-color:#FAB23F"/>
			<stop  offset="0.2905" style="stop-color:#ED8842"/>
			<stop  offset="0.5556" style="stop-color:#D84447"/>
			<stop  offset="0.7262" style="stop-color:#C9154B"/>
			<stop  offset="0.7643" style="stop-color:#CB1B4C"/>
			<stop  offset="0.8146" style="stop-color:#D12B4F"/>
			<stop  offset="0.8716" style="stop-color:#DC4753"/>
			<stop  offset="0.9336" style="stop-color:#EA6D5A"/>
			<stop  offset="0.999" style="stop-color:#FC9D62"/>
			<stop  offset="1" style="stop-color:#FC9E62"/>
		</linearGradient>
		<path class="st4" d="M410.9,422.1C650.7,173.1,885.5,9.9,935.2,57.8c49.7,47.8-104.5,288.5-344.4,537.6
			C350.9,844.5,116.1,1007.6,66.5,959.8S171,671.2,410.9,422.1z M196,805.6c38.1,36.7,201.1-70.7,364-239.8
			c162.9-169.2,264.1-336,226-372.7c-38.1-36.7-201.1,70.7-364,239.8C259,602,157.9,768.9,196,805.6z M148.4,864.9
			c-14.7-40.3,49.8-162.4,49.8-162.4S95.7,843.2,119.3,894.2c22.7,49.1,244.5-121.1,244.5-121.1S161.1,899.6,148.4,864.9z
			 M772.1,349.3c0,0,162.7-227.3,112.9-248.4C833.2,78.9,696,186.1,696,186.1s119.9-68.5,160.7-55.1
			C891.8,142.5,772.1,349.3,772.1,349.3z"/>
		<path class="st5" d="M162,734.4c0,0-3.6,5.8-10.1,16.3c-6.5,10.5-15.9,25.7-26.8,44.8c-10.9,19.2-23.3,42.3-34.6,69.1
			c-5.7,13.4-11.4,27.6-14.4,42.9c-1.5,7.6-2.2,15.6-1.2,23.4l0.4,2.9c0.2,1,0.5,1.9,0.7,2.8c0.5,2.2,0.9,3.2,2.1,4.2
			c2.5,2,6.6,2.9,10.5,3.3c8.1,0.7,16.3-0.2,24.2-1.6c7.9-1.4,15.7-3.5,23.1-6c14.9-5,28.9-11.2,41.8-17.7c13-6.5,25-13.3,36.2-19.9
			c11.2-6.6,21.4-12.9,30.7-18.9c18.6-11.9,33.2-22.1,43.3-29.3c10-7.2,15.5-11.2,15.5-11.2s-5.3,4.3-15.1,11.8
			c-9.8,7.5-24.1,18.2-42.4,30.6c-9.2,6.2-19.3,12.8-30.4,19.6c-11.1,6.8-23.1,13.9-36.1,20.6c-13,6.8-27,13.3-42.2,18.5
			c-7.6,2.6-15.5,4.7-23.7,6.3c-8.2,1.5-16.7,2.4-25.4,1.7c-4.3-0.5-8.9-1.1-13-4.3c-0.5-0.4-1-0.8-1.4-1.4
			c-0.4-0.5-0.8-1.1-1.1-1.7c-0.7-1.4-0.8-2.3-1.1-3.4c-0.3-1.1-0.5-2.1-0.8-3.2l-0.4-3.2c-1.1-8.5-0.2-16.9,1.4-24.8
			c3.3-15.9,9.2-30.2,15.2-43.6c11.7-26.8,24.8-49.9,36.2-68.8c11.5-18.9,21.4-33.8,28.2-44.1C158.2,740.1,162,734.4,162,734.4z
			 M126.9,809.2c-3,5.2-7.3,12.8-12,22.5c-4.7,9.7-10.2,21.3-15,34.8c-2.4,6.8-4.6,14-6.3,21.7c-0.8,3.9-1.6,7.6-2.2,11.8
			c-0.6,4.1-0.8,8.5,0.4,13c1.1,4.5,4,8.4,7.6,11c3.6,2.6,7.9,4,12,4.5c8.4,0.8,15.9-1.4,22.8-3.5c13.7-4.2,25.6-9.4,35.2-14.3
			c9.6-4.9,17.1-9.4,22.2-12.6c5.1-3.2,7.8-5.1,7.8-5.1s-2.9,1.7-8.2,4.5c-5.3,2.8-13,6.9-22.8,11.2c-9.8,4.3-21.7,8.9-35.3,12.6
			c-3.4,1-6.9,1.9-10.4,2.4c-3.5,0.6-7.2,0.9-10.7,0.4c-3.5-0.5-7-1.7-9.8-3.8c-2.8-2.1-5-5.1-5.9-8.6c-1.9-7.1,0.4-15.1,1.6-22.6
			c1.6-7.5,3.5-14.6,5.6-21.3c4.3-13.4,9.2-25.2,13.4-35.1c4.2-9.9,7.9-17.7,10.6-23.1c2.7-5.4,4.2-8.3,4.2-8.3
			S129.9,804,126.9,809.2z M207.4,700c-1,1.6-2.4,3.9-4.1,7c-3.5,6.1-8.3,15.1-13.3,26.7c-5,11.6-10,25.8-14,42.1
			c-2,8.1-3.6,16.8-4.9,25.8c-0.6,4.5-1.3,9.2-1.2,14.1c0,4.9,0.9,10.1,3.3,14.8c1.2,2.3,2.8,4.5,4.7,6.3c2,1.8,4.3,3.2,6.7,4.1
			c4.9,1.8,10,1.8,14.7,1.2c4.7-0.6,9.1-1.8,13.3-3c4.2-1.2,8.3-2.5,12.3-3.8c15.9-5.3,29.7-11.3,40.9-17c11.3-5.7,20-11,25.9-14.8
			c3-1.9,5.2-3.4,6.8-4.5c1.5-1,2.3-1.6,2.3-1.6s-0.8,0.5-2.4,1.4c-1.6,0.9-4,2.3-7,4c-6.1,3.4-15.1,8.2-26.5,13.3
			c-11.4,5.2-25.3,10.6-41.1,15.4c-3.9,1.2-8,2.4-12.2,3.5c-4.2,1.1-8.4,2.2-12.7,2.7c-4.3,0.5-8.7,0.4-12.6-1.1
			c-3.9-1.4-7-4.4-9-8.3c-2-3.9-2.7-8.3-2.8-12.7c-0.1-4.4,0.5-9,1-13.4c1.1-8.9,2.6-17.4,4.3-25.5c3.5-16.1,7.9-30.4,12.4-42.1
			c4.4-11.7,8.7-20.9,11.8-27.2c1.5-3.2,2.8-5.6,3.7-7.2c0.9-1.6,1.3-2.5,1.3-2.5S208.3,698.5,207.4,700z"/>
		<path class="st5" d="M737,145.3c10.1-7.1,24.8-17.3,43.4-29.2c18.6-11.9,41.3-25.4,67.9-37.7c13.2-6.2,27.5-12.5,43.2-16.2
			c7.9-1.8,16.2-2.8,24.8-2l3.2,0.4c1.1,0.2,2.1,0.5,3.2,0.7c1.1,0.3,2,0.3,3.4,1c0.7,0.2,1.2,0.7,1.8,1.1c0.6,0.4,1,0.9,1.5,1.4
			c3.3,4,4,8.6,4.6,12.9c1,8.7,0.2,17.2-1.1,25.5c-1.3,8.2-3.3,16.2-5.7,23.8c-4.8,15.3-11,29.5-17.5,42.6
			c-6.5,13.2-13.2,25.3-19.8,36.5c-6.6,11.2-13,21.5-18.9,30.8c-12,18.6-22.4,33.1-29.7,43.1c-7.3,10-11.5,15.4-11.5,15.4
			s3.9-5.6,10.9-15.8c6.9-10.2,16.8-25.1,28.3-43.9c5.7-9.4,11.9-19.8,18.2-31.1c6.3-11.3,12.8-23.5,19-36.7
			c6.2-13.1,12.1-27.2,16.8-42.2c2.3-7.5,4.2-15.3,5.4-23.3c1.2-7.9,1.9-16.2,1-24.2c-0.5-3.9-1.4-8-3.5-10.4
			c-1.1-1.2-2.1-1.6-4.2-2c-1-0.2-1.9-0.5-2.9-0.6l-2.9-0.3c-7.8-0.8-15.7,0.1-23.3,1.8c-15.2,3.4-29.3,9.4-42.6,15.4
			c-26.6,11.9-49.4,24.8-68.3,36.2c-18.9,11.4-33.9,21.1-44.2,27.8c-10.3,6.8-16.1,10.5-16.1,10.5S726.9,152.5,737,145.3z
			 M787.5,124.6c0,0,2.9-1.6,8.3-4.4c5.3-2.8,13.1-6.7,22.9-11.1c9.8-4.4,21.5-9.6,34.8-14.2c6.7-2.3,13.8-4.4,21.2-6.1
			c7.5-1.4,15.4-3.9,22.6-2.2c3.5,0.8,6.6,2.9,8.7,5.7c2.2,2.8,3.5,6.2,4,9.7c0.5,3.5,0.3,7.2-0.2,10.7c-0.5,3.6-1.3,7-2.2,10.5
			c-3.5,13.7-7.7,25.7-11.8,35.6c-4.1,9.9-7.9,17.7-10.7,23.1c-2.7,5.4-4.3,8.3-4.3,8.3s1.8-2.8,5-7.9c3.1-5.2,7.5-12.7,12.1-22.5
			c4.6-9.7,9.5-21.7,13.5-35.5c1.9-6.9,4-14.4,3-22.8c-0.6-4.1-2-8.3-4.8-11.9c-2.7-3.5-6.7-6.3-11.2-7.4c-4.5-1.2-8.9-0.8-13-0.1
			c-4.1,0.7-7.9,1.6-11.7,2.5c-7.6,1.9-14.8,4.2-21.5,6.8c-13.4,5.1-24.9,10.9-34.5,15.8c-9.6,4.9-17.1,9.4-22.2,12.5
			C790.2,122.8,787.5,124.6,787.5,124.6z M685.7,204.1c0,0,0.9-0.5,2.5-1.4c1.6-0.9,4-2.2,7.1-3.8c6.2-3.3,15.3-7.7,27-12.4
			c11.6-4.7,25.8-9.5,41.8-13.3c8-1.9,16.5-3.6,25.4-4.9c4.4-0.7,8.9-1.3,13.4-1.3c4.4,0,8.9,0.6,12.8,2.5c3.9,1.9,7,4.9,8.5,8.8
			c1.6,3.8,1.7,8.2,1.3,12.5c-0.4,4.3-1.3,8.5-2.4,12.8c-1,4.2-2.1,8.3-3.2,12.3c-4.4,15.9-9.6,29.9-14.5,41.5
			c-4.8,11.6-9.5,20.6-12.7,26.8c-1.6,3.1-2.9,5.5-3.9,7.1c-0.9,1.6-1.4,2.5-1.4,2.5s0.5-0.8,1.5-2.4c1-1.5,2.5-3.9,4.3-6.9
			c3.6-6,8.8-14.9,14.2-26.3c5.5-11.4,11.2-25.3,16.1-41.3c1.2-4,2.4-8.1,3.5-12.4c1.1-4.2,2.2-8.7,2.7-13.3
			c0.5-4.7,0.4-9.8-1.5-14.6c-1-2.4-2.4-4.7-4.3-6.6c-1.9-1.9-4.1-3.4-6.5-4.6c-4.7-2.3-10-3-14.8-2.9c-4.9,0.1-9.5,0.8-14,1.5
			c-9,1.5-17.6,3.3-25.7,5.5c-16.2,4.3-30.3,9.7-41.8,15c-11.5,5.3-20.4,10.3-26.4,13.9c-3,1.8-5.3,3.3-6.9,4.3
			C686.5,203.6,685.7,204.1,685.7,204.1z"/>
		<g class="st6">
			<path class="st7" d="M679.6,451.8c0,0-3.3,4.4-9.2,12.3c-3,4-6.6,8.8-11,14.3c-4.3,5.5-9.2,11.9-14.8,18.7
				c-5.6,6.9-11.7,14.4-18.4,22.3c-6.6,8-14,16.4-21.7,25.2c-15.5,17.5-33,36.5-51.9,55.8c-19,19.3-37.6,37.1-54.8,52.9
				c-8.7,7.9-16.9,15.3-24.8,22.1c-7.8,6.9-15.2,13.1-22,18.8c-6.7,5.7-13,10.7-18.4,15.2c-5.4,4.5-10.2,8.2-14.1,11.3
				c-7.8,6.1-12.1,9.5-12.1,9.5s4.1-3.6,11.6-10c3.8-3.2,8.3-7.2,13.6-11.8c5.3-4.7,11.3-9.9,17.9-15.8c6.6-5.9,13.8-12.4,21.4-19.4
				c7.7-7,15.7-14.6,24.2-22.6c16.9-16.1,35.3-34.1,54.2-53.3c18.9-19.3,36.5-38,52.3-55.2c7.8-8.7,15.3-16.8,22.2-24.7
				c6.9-7.7,13.3-15.1,19-21.8c5.8-6.6,10.9-12.8,15.5-18.1c4.6-5.3,8.4-10,11.6-13.8C676.1,456,679.6,451.8,679.6,451.8z"/>
		</g>
	</g>
</g>
</svg>
