<?xml version="1.0" encoding="utf-8"?>
<!-- Generator: Adobe Illustrator 25.0.0, SVG Export Plug-In . SVG Version: 6.00 Build 0)  -->
<svg version="1.1" id="Capa_1" xmlns="http://www.w3.org/2000/svg" xmlns:xlink="http://www.w3.org/1999/xlink" x="0px" y="0px"
	 viewBox="0 0 1000 521" style="enable-background:new 0 0 1000 521;" xml:space="preserve">
<style type="text/css">
	.st0{fill-rule:evenodd;clip-rule:evenodd;fill:url(#SVGID_1_);}
	.st1{fill-rule:evenodd;clip-rule:evenodd;fill:url(#SVGID_2_);}
	.st2{fill-rule:evenodd;clip-rule:evenodd;fill:url(#SVGID_3_);}
	.st3{fill:#3C107B;}
	.st4{fill-rule:evenodd;clip-rule:evenodd;fill:#31165F;}
	.st5{fill-rule:evenodd;clip-rule:evenodd;fill:#0054B5;}
	.st6{fill-rule:evenodd;clip-rule:evenodd;fill:#31C7FF;}
	.st7{fill-rule:evenodd;clip-rule:evenodd;fill:url(#SVGID_4_);}
	.st8{fill-rule:evenodd;clip-rule:evenodd;fill:#FFFFFF;}
	.st9{fill-rule:evenodd;clip-rule:evenodd;fill:url(#SVGID_5_);}
	.st10{fill-rule:evenodd;clip-rule:evenodd;fill:url(#SVGID_6_);}
	.st11{fill-rule:evenodd;clip-rule:evenodd;fill:url(#SVGID_7_);}
	.st12{fill-rule:evenodd;clip-rule:evenodd;fill:url(#SVGID_8_);}
	.st13{fill:#77439F;}
	.st14{fill:#FFFFFF;}
	.st15{fill-rule:evenodd;clip-rule:evenodd;fill:#FF935F;}
	.st16{fill-rule:evenodd;clip-rule:evenodd;fill:url(#SVGID_9_);}
	.st17{fill-rule:evenodd;clip-rule:evenodd;fill:url(#SVGID_10_);}
	.st18{fill-rule:evenodd;clip-rule:evenodd;fill:url(#SVGID_11_);}
	.st19{fill-rule:evenodd;clip-rule:evenodd;fill:url(#SVGID_12_);}
</style>
<linearGradient id="SVGID_1_" gradientUnits="userSpaceOnUse" x1="589.5853" y1="213.0078" x2="589.5853" y2="458.9433" gradientTransform="matrix(0.9721 0.2349 0.2349 -0.9721 -109.5809 353.188)">
	<stop  offset="0" style="stop-color:#FFFF29"/>
	<stop  offset="1" style="stop-color:#FF7E59"/>
</linearGradient>
<path class="st0" d="M219.06,204.34c0,0,182.16-190.7,341.52-161.16C725.95,73.83,810.2,356.29,810.2,356.29L219.06,204.34z"/>
<radialGradient id="SVGID_2_" cx="585.2471" cy="3943.8833" r="274.0574" gradientTransform="matrix(0.972 0.2348 0.3297 -1.3647 -1371.458 5575.9434)" gradientUnits="userSpaceOnUse">
	<stop  offset="0.0223" style="stop-color:#8343B0"/>
	<stop  offset="0.3977" style="stop-color:#7937AA"/>
	<stop  offset="0.9944" style="stop-color:#611B9C"/>
</radialGradient>
<path class="st1" d="M987.05,488.35c-4.47,7.66-201.85,41.21-506.17-32.31C199.81,388.14,9.92,265.8,15.8,253.71
	c4.12-8.47,226.86,13.46,495.07,78.25C779.07,396.76,990.4,482.63,987.05,488.35z"/>
<radialGradient id="SVGID_3_" cx="565.4106" cy="-1696.9652" r="421.9052" gradientTransform="matrix(0.972 0.2348 0.1553 -0.643 211.7049 -977.1108)" gradientUnits="userSpaceOnUse">
	<stop  offset="0" style="stop-color:#D4CFFF"/>
	<stop  offset="1" style="stop-color:#8D6FC7"/>
</radialGradient>
<path class="st2" d="M15.8,253.71c0,0,174.02-102.17,499.61-23.51s471.65,258.16,471.65,258.16s-126.1-63.2-497.1-152.83
	C193.71,263.96,15.8,253.71,15.8,253.71z"/>
<g>
	<path class="st3" d="M99.95,312.86l-2.32-1.47c15.28-24.06,193.11,6.54,354.44,43.2C611,390.7,808.49,445.78,866.34,481.34
		c13.94,8.56,19.03,15.56,15.57,21.39l-2.36-1.4c3.11-5.24-6.25-12.49-14.64-17.65c-57.66-35.49-254.73-90.36-413.44-126.42
		C252.98,312.16,111.72,294.32,99.95,312.86z"/>
</g>
<path class="st4" d="M285.04,396.07c0,0,170.55,18.19,385.64,95.05C670.68,491.12,467.8,465,285.04,396.07z"/>
<path class="st5" d="M304.18,402.58c0,0,160.24,17.76,345.71,85.78C649.89,488.36,465.76,465.52,304.18,402.58z"/>
<path class="st6" d="M341.25,407.4c0,0,175.87,57.89,267.98,65.55C609.22,472.95,448.33,423.63,341.25,407.4z"/>
<linearGradient id="SVGID_4_" gradientUnits="userSpaceOnUse" x1="598.0334" y1="85.1763" x2="598.0334" y2="99.7132" gradientTransform="matrix(0.9721 0.2349 0.2349 -0.9721 -109.5809 353.188)">
	<stop  offset="0" style="stop-color:#FFFF29"/>
	<stop  offset="1" style="stop-color:#FF7E59"/>
</linearGradient>
<path class="st7" d="M526.28,411.69c-0.94,3.9-16.39,3.51-34.5-0.86c-18.1-4.37-32.02-11.08-31.08-14.98
	c0.13-0.54,0.55-1.01,1.22-1.38c4.07-2.35,17.69-1.54,33.28,2.23c13.56,3.28,24.78,7.86,29.16,11.6
	C525.82,409.55,526.52,410.72,526.28,411.69z"/>
<path class="st8" d="M524.35,408.37c-0.81,3.34-15.5,2.66-32.81-1.52c-15.32-3.7-27.58-8.92-29.62-12.37
	c4.07-2.35,17.69-1.54,33.28,2.23c13.56,3.28,24.78,7.86,29.16,11.6C524.36,408.32,524.35,408.35,524.35,408.37z"/>
<g>
	
		<linearGradient id="SVGID_5_" gradientUnits="userSpaceOnUse" x1="768.8979" y1="81.7688" x2="768.8979" y2="95.1708" gradientTransform="matrix(0.9721 0.2349 0.2349 -0.9721 -109.5809 353.188)">
		<stop  offset="0" style="stop-color:#FFFF29"/>
		<stop  offset="1" style="stop-color:#FF7E59"/>
	</linearGradient>
	<path class="st9" d="M679.61,452.83c-0.87,3.59-10.95,4.24-22.52,1.44c-9.56-2.31-17.14-6.25-19-9.58c-0.02,0-0.02,0-0.02,0
		c-0.39-0.69-0.52-1.36-0.37-1.99c0.12-0.5,0.42-0.95,0.89-1.33c2.81-2.4,11.67-2.54,21.64-0.13c6.13,1.48,11.44,3.63,14.95,5.85
		c1.47,0.92,2.61,1.86,3.38,2.77C679.45,450.92,679.82,451.93,679.61,452.83z"/>
	<path class="st8" d="M675.59,449.14c-0.87,3.59-10.95,4.23-22.54,1.43c-6.13-1.48-11.46-3.63-14.96-5.87c-0.02,0-0.02,0-0.02,0
		c-0.39-0.69-0.52-1.36-0.37-1.99c0.12-0.5,0.42-0.95,0.89-1.33c2.81-2.4,11.67-2.54,21.64-0.13c6.13,1.48,11.44,3.63,14.95,5.85
		C675.59,447.82,675.74,448.5,675.59,449.14z"/>
</g>
<g>
	
		<linearGradient id="SVGID_6_" gradientUnits="userSpaceOnUse" x1="879.0444" y1="64.8623" x2="879.0444" y2="73.433" gradientTransform="matrix(0.9721 0.2349 0.2349 -0.9721 -109.5809 353.188)">
		<stop  offset="0" style="stop-color:#FFFF29"/>
		<stop  offset="1" style="stop-color:#FF7E59"/>
	</linearGradient>
	<path class="st10" d="M778.17,496.52c-0.55,2.29-8.61,2.32-17.99,0.06c-7.75-1.87-13.97-4.73-15.59-6.96c-0.01,0-0.01,0-0.01,0
		c-0.34-0.46-0.47-0.9-0.37-1.3c0.08-0.32,0.3-0.6,0.66-0.83c2.16-1.44,9.25-1.19,17.33,0.76c4.97,1.2,9.3,2.8,12.2,4.38
		c1.22,0.66,2.16,1.31,2.81,1.93C777.96,495.27,778.3,495.94,778.17,496.52z"/>
	<path class="st8" d="M774.8,493.97c-0.55,2.29-8.61,2.32-18,0.05c-4.97-1.2-9.32-2.8-12.21-4.39c-0.01,0-0.01,0-0.01,0
		c-0.34-0.46-0.47-0.9-0.37-1.3c0.08-0.32,0.3-0.6,0.66-0.83c2.16-1.44,9.25-1.19,17.33,0.76c4.97,1.2,9.3,2.8,12.2,4.38
		C774.75,493.11,774.9,493.55,774.8,493.97z"/>
</g>
<g>
	
		<linearGradient id="SVGID_7_" gradientUnits="userSpaceOnUse" x1="85.4582" y1="81.9949" x2="85.4582" y2="95.3969" gradientTransform="matrix(-0.9721 -0.2349 0.2349 -0.9721 404.6204 477.1107)">
		<stop  offset="0" style="stop-color:#FFFF29"/>
		<stop  offset="1" style="stop-color:#FF7E59"/>
	</linearGradient>
	<path class="st11" d="M321.43,365.76c-0.87,3.59,7.81,8.77,19.38,11.57c9.56,2.31,18.1,2.26,21.27,0.15c0.02,0,0.02,0,0.02,0
		c0.66-0.44,1.08-0.97,1.23-1.6c0.12-0.5,0.06-1.03-0.19-1.59c-1.41-3.41-9.22-7.58-19.19-9.99c-6.13-1.48-11.83-1.99-15.97-1.62
		c-1.73,0.15-3.17,0.47-4.27,0.92C322.44,364.13,321.64,364.86,321.43,365.76z"/>
	<path class="st8" d="M326.69,364.31c-0.87,3.59,7.81,8.76,19.4,11.56c6.13,1.48,11.85,2,15.99,1.61c0.02,0,0.02,0,0.02,0
		c0.66-0.44,1.08-0.97,1.23-1.6c0.12-0.5,0.06-1.03-0.19-1.59c-1.41-3.41-9.22-7.58-19.19-9.99c-6.13-1.48-11.83-1.99-15.97-1.62
		C327.28,363.13,326.84,363.67,326.69,364.31z"/>
</g>
<g>
	
		<linearGradient id="SVGID_8_" gradientUnits="userSpaceOnUse" x1="215.4045" y1="65.4071" x2="215.4045" y2="73.9779" gradientTransform="matrix(-0.9721 -0.2349 0.2349 -0.9721 404.6204 477.1107)">
		<stop  offset="0" style="stop-color:#FFFF29"/>
		<stop  offset="1" style="stop-color:#FF7E59"/>
	</linearGradient>
	<path class="st12" d="M194.61,354.67c-0.55,2.29,6.6,6,15.98,8.26c7.75,1.87,14.59,2.17,17.05,0.93c0.01,0,0.01,0,0.01,0
		c0.51-0.26,0.83-0.59,0.93-0.99c0.08-0.32,0.01-0.67-0.21-1.04c-1.26-2.27-7.68-5.28-15.76-7.23c-4.97-1.2-9.56-1.76-12.86-1.67
		c-1.38,0.03-2.52,0.18-3.39,0.43C195.36,353.65,194.75,354.09,194.61,354.67z"/>
	<path class="st8" d="M198.77,353.93c-0.55,2.29,6.6,5.99,15.99,8.26c4.97,1.2,9.57,1.76,12.87,1.67c0.01,0,0.01,0,0.01,0
		c0.51-0.26,0.83-0.59,0.93-0.99c0.08-0.32,0.01-0.67-0.21-1.04c-1.26-2.27-7.68-5.28-15.76-7.23c-4.97-1.2-9.56-1.76-12.86-1.67
		C199.2,353.19,198.87,353.52,198.77,353.93z"/>
</g>
<g>
	<path class="st13" d="M95.72,224.08l-0.2-1.36c1.15-0.17,117.06-17.07,276.17-0.44c93.44,9.76,183.3,29.01,267.05,57.2
		c104.71,35.24,200.14,84.65,283.63,146.82l-0.82,1.1c-188.84-140.66-403.3-188.43-549.97-203.75
		C212.63,207.04,96.87,223.91,95.72,224.08z"/>
</g>
<g>
	<path class="st3" d="M15.76,255.08l0.07-2.74c1.5,0.04,153.78,4.69,500.75,88.52c346.99,83.83,469.89,145.66,471.1,146.28
		l-1.25,2.44c-1.2-0.62-123.9-62.32-470.49-146.05C169.31,259.78,17.26,255.12,15.76,255.08z"/>
</g>
<g>
	<path class="st13" d="M126.55,265.61l-0.67-1.19c0.72-0.4,72.36-40.54,120.93-49.39l0.24,1.35
		C198.71,225.18,127.26,265.21,126.55,265.61z"/>
</g>
<g>
	<path class="st13" d="M900.52,454.25c-53.88-71.44-146.4-126.85-147.32-127.4l0.7-1.18c0.93,0.55,93.67,56.09,147.72,127.76
		L900.52,454.25z"/>
</g>
<path class="st14" d="M633.34,92.81c0,0,9.27,17.47,27.53,50.46l23.41,5.97c0,0-7.58-25.22-38.2-53.35L633.34,92.81z"/>
<path class="st14" d="M226.29,197.1c0,0,195.38-190.03,348.97-147.63c153.59,42.41,228.42,287.11,228.42,287.11
	S720.43,72.77,581.62,39.07C421.75,0.27,226.29,197.1,226.29,197.1z"/>
<path class="st15" d="M334.46,196.08c0,0,94.85-32.6,212.63-10.17s186.97,104.95,186.97,104.95S539.99,197.86,334.46,196.08z"/>
<path class="st14" d="M259.68,182.59c0,0,42.64-40.02,89.19-65.59l14.21,0.12c0,0-50.79,39.95-70.87,64.38L259.68,182.59z"/>
<radialGradient id="SVGID_9_" cx="579.7746" cy="4023.0049" r="162.5455" gradientTransform="matrix(0.972 0.2348 0.3542 -1.466 -1468.9116 5979.2217)" gradientUnits="userSpaceOnUse">
	<stop  offset="0.0223" style="stop-color:#725EB0"/>
	<stop  offset="0.3834" style="stop-color:#6D52AA"/>
	<stop  offset="0.9944" style="stop-color:#61349C"/>
</radialGradient>
<path class="st16" d="M219.06,204.34l9.27-9.03c0,0,381.11-20.1,575.35,141.28l4.04,11.86c0,0-89.34-64.36-289.89-112.81
	S219.06,204.34,219.06,204.34z"/>
<path class="st14" d="M241.77,287.02c0,0,245.13,34.69,603.17,150.2C844.95,437.22,594.53,357,241.77,287.02z"/>
<g>
	
		<linearGradient id="SVGID_10_" gradientUnits="userSpaceOnUse" x1="594.5988" y1="150.496" x2="594.5988" y2="161.965" gradientTransform="matrix(0.9721 0.2349 0.2349 -0.9721 -109.5809 353.188)">
		<stop  offset="0" style="stop-color:#8DC7FF"/>
		<stop  offset="0.3156" style="stop-color:#5C4D86"/>
	</linearGradient>
	<path class="st17" d="M511.94,342.6c-0.74,3.08-4.39,4.84-8.15,3.93c-3.76-0.91-6.2-4.14-5.46-7.22c0.74-3.08,4.39-4.84,8.15-3.93
		S512.68,339.52,511.94,342.6z"/>
	<path class="st8" d="M510.49,342.25c-0.59,2.42-3.46,3.81-6.42,3.09c-2.96-0.71-4.88-3.26-4.3-5.68c0.59-2.42,3.46-3.81,6.42-3.09
		C509.15,337.28,511.08,339.83,510.49,342.25z"/>
</g>
<g>
	
		<linearGradient id="SVGID_11_" gradientUnits="userSpaceOnUse" x1="1005.8804" y1="135.3429" x2="1005.8804" y2="146.8119" gradientTransform="matrix(0.9721 0.2349 0.2349 -0.9721 -109.5809 353.188)">
		<stop  offset="0" style="stop-color:#8DC7FF"/>
		<stop  offset="0.3156" style="stop-color:#5C4D86"/>
	</linearGradient>
	<path class="st18" d="M908.19,453.93c-0.74,3.08-4.39,4.84-8.15,3.93s-6.2-4.14-5.46-7.22s4.39-4.84,8.15-3.93
		S908.94,450.85,908.19,453.93z"/>
	<path class="st8" d="M906.75,453.58c-0.59,2.42-3.46,3.81-6.42,3.09c-2.96-0.72-4.88-3.26-4.3-5.68c0.59-2.42,3.46-3.81,6.42-3.09
		C905.41,448.61,907.33,451.15,906.75,453.58z"/>
</g>
<g>
	
		<linearGradient id="SVGID_12_" gradientUnits="userSpaceOnUse" x1="203.5544" y1="135.3279" x2="203.5544" y2="146.7968" gradientTransform="matrix(0.9721 0.2349 0.2349 -0.9721 -109.5809 353.188)">
		<stop  offset="0" style="stop-color:#8DC7FF"/>
		<stop  offset="0.3156" style="stop-color:#5C4D86"/>
	</linearGradient>
	<path class="st19" d="M128.24,265.5c-0.74,3.08-4.39,4.84-8.15,3.93s-6.2-4.14-5.46-7.22s4.39-4.84,8.15-3.93
		C126.54,259.19,128.98,262.42,128.24,265.5z"/>
	<path class="st8" d="M126.79,265.15c-0.59,2.42-3.46,3.81-6.42,3.09s-4.88-3.26-4.3-5.68c0.59-2.42,3.46-3.81,6.42-3.09
		C125.45,260.18,127.37,262.73,126.79,265.15z"/>
</g>
<g>
	<path class="st8" d="M497.86,290.95c0.59,0.56,1.36,1.54,2.92,1.78c0.72,0.11,1.37,0.1,2.08,0.17c0.62,0.07,1.26,0.17,1.89,0.3
		c0.86,0.18,2.23,0.32,2.95,0.24c0.54-0.06,0.07-0.38-0.37-0.61c-0.48-0.26-0.99-0.53-1.61-0.69c-0.81-0.21-1.61-0.42-2.38-0.69
		c-0.3-0.1-0.55-0.26-0.87-0.37c-0.42-0.14-0.88-0.24-1.31-0.34C500.21,290.54,498.38,290.38,497.86,290.95z"/>
	<path class="st8" d="M510.2,295.62c-0.43-0.05-0.77-0.16-1.02-0.34c0.18-0.58,3.18-0.07,3.63,0.62c0.51,0.79-1.74,0.33-2.66-0.09
		L510.2,295.62z"/>
	<path class="st8" d="M526.56,310.99c-0.3-0.4-0.76-0.78-0.48-1.07c0.24-0.25,0.72-0.37,1.33-0.43c0.75-0.07,1.66,0.04,2.55,0.15
		c0.44,0.05,0.86,0.07,1.3,0.22c1.72,0.61,2.78,1.7,3.13,2.44c0.21,0.43,0.46,0.85,0.45,1.25c-0.01,0.27,0.03,0.56,0.08,0.84
		c0.04,0.24,0.22,0.49,0.02,0.68c-0.14,0.13-0.55,0.26-0.83,0.33c-0.91,0.22-2.16,0.19-3.47-0.14c-2.29-0.59-3.87-2.1-4.62-3.06
		C525.39,311.41,524.67,310.23,526.56,310.99z"/>
	<path class="st8" d="M524.12,307.42c0.64,0.24,0.82,0.37,1.23,0.25c0.3-0.09,0.34-0.3,0.24-0.49c-0.19-0.38-1.31-1.07-2.19-1.03
		c-0.44,0.02-1.26,0.12-1.35,0.3c-0.19,0.36,1.1,1.18,1.99,1.35L524.12,307.42z"/>
	<path class="st8" d="M549.4,301.12c0.36,0.14,0.64,0.2,1.03,0.3c0.89,0.21,1.79,0.43,2.68,0.65c1.68,0.4,3.34,0.9,5.02,1.31
		c1.22,0.3,2.45,0.51,3.67,0.73c0.63,0.11,1.29,0.22,1.91,0.31c-0.03-0.07-0.33-0.15-0.46-0.21c-0.45-0.19-0.95-0.37-1.37-0.57
		c-0.95-0.46-1.95-0.93-2.95-1.36c-0.18-0.08-0.41-0.15-0.57-0.24c-0.2-0.12-0.39-0.26-0.57-0.38c-0.33-0.21-0.72-0.43-1.15-0.61
		c-1.01-0.43-2.28-0.74-3.41-0.99c-0.39-0.09-0.76-0.13-1.15-0.22c-0.42-0.1-0.82-0.19-1.24-0.27c-0.89-0.16-1.75-0.2-2.56-0.21
		c-0.94-0.01-2.56-0.16-2.92,0.23c-0.18,0.19,0.42,0.42,0.87,0.56c0.56,0.18,1.15,0.32,1.72,0.49
		C548.69,300.87,549.59,301.2,549.4,301.12z"/>
	<path class="st8" d="M541.59,298.74c-0.4-0.2-1.15-0.52-0.95-0.74c0.19-0.21,1.09,0,1.58,0.14c1.15,0.35-0.21,0.64-0.96,0.41
		L541.59,298.74z"/>
	<path class="st8" d="M549.99,296.06c0.43,0.19,0.83,0.37,1.35,0.45c0.73,0.12,1.07-0.03,1.16-0.29c0.14-0.41-0.06-0.76-1.14-1.11
		c-0.66-0.22-1.73-0.28-2.24-0.2c-0.24,0.04-0.39,0.13-0.45,0.25c-0.11,0.25,0.38,0.49,0.85,0.74L549.99,296.06z"/>
	<path class="st8" d="M585.75,294.77c-0.59-0.81-1.16-1.62-1.34-2.39c-0.16-0.67,0.12-1.25,0.13-1.89c0-0.9-0.54-1.86-0.86-2.82
		c-0.28-0.84-0.37-1.6,0.27-2.23c0.49-0.47,1.56-0.84,2.97-0.78c0.87,0.04,1.83,0.17,2.76,0.35c0.45,0.08,0.85,0.17,1.29,0.25
		c0.28,0.05,0.47,0.06,0.79,0.14c0.41,0.11,0.4,0.17,0.36,0.32c-0.08,0.29-0.2,0.48-0.66,0.64c-0.69,0.24-1.08,0.66-1.39,1.05
		c-0.31,0.39-0.68,0.75-0.92,1.16c-0.24,0.4-0.47,0.81-0.73,1.2c-0.22,0.34-0.47,0.67-0.7,1.02c-0.22,0.34-0.31,0.71-0.47,1.07
		c-0.13,0.29-0.13,0.62-0.28,0.92c-0.1,0.18-0.19,0.36-0.23,0.55c-0.03,0.16-0.1,0.29-0.2,0.43c-0.1,0.13-0.07,0.29-0.13,0.43
		C586.37,294.28,586.09,294.56,585.75,294.77z"/>
	<path class="st8" d="M579.75,289.1c0.18,0.15,0.33,0.31,0.63,0.41c0.12,0.04,0.37,0.09,0.49,0.11c0.73,0.11,0.88-0.34,0.93-0.57
		c0.16-0.62-0.16-1.46-1.21-2.2c-0.67-0.47-1.91-1.05-3-1.23c-1.52-0.24-2.51,0.19-2.96,0.65c-0.41,0.43-0.65,1.12,0.27,1.76
		c0.33,0.23,0.75,0.46,1.26,0.6c0.39,0.11,0.79,0.14,1.19,0.24c0.53,0.12,0.97,0.34,1.51,0.37
		C579.26,289.26,579.54,289.2,579.75,289.1z"/>
	<path class="st8" d="M580.78,285.38c-0.45-0.07-0.5-0.1-0.82-0.28c-0.29-0.17-0.4-0.3-0.26-0.43c0.21-0.2,0.96-0.17,1.5,0.06
		c0.34,0.15,0.5,0.39,0.5,0.55c0,0.19-0.37,0.27-0.82,0.22L580.78,285.38z"/>
	<path class="st8" d="M547.13,272.14c0.24,0.33,0.32,0.45,0.87,0.72c0.27,0.14,0.48,0.22,0.83,0.25c0.85,0.06,1.76-0.15,2.12-0.39
		c0.27-0.18,0.29-0.5,0.03-0.79c-0.23-0.26-0.78-0.56-1.16-0.8c-0.35-0.23-0.73-0.44-1.12-0.66c-0.68-0.38-1.45-0.73-2.34-0.73
		c-0.78,0-1.46,0.25-1.49,0.62c-0.02,0.29,0.18,0.52,0.45,0.84C545.58,271.5,545.74,271.75,547.13,272.14z"/>
	<path class="st8" d="M550.43,274.28c0.08-0.18,0.25-0.33,0.51-0.45c0.22,0.06,0.36-0.02,0.6,0.08c0.35,0.14,0.19,0.35,0.15,0.45
		c-0.05,0.13-0.24,0.24-0.52,0.28c-0.1,0.01-0.55,0.07-0.56-0.06L550.43,274.28z"/>
	<path class="st8" d="M574.43,297.99c0.52,0.25,1.1,0.53,1.75,0.47c0.6-0.06,0.57-0.45,0.35-0.75c-0.12-0.16-0.24-0.34-0.6-0.45
		c-0.37-0.11-0.78-0.18-1.16-0.28c-0.9-0.23-1.46-0.74-2.4-0.63c-0.39,0.05-0.74,0.26-0.69,0.47c0.09,0.4,1,0.81,1.75,1.12
		L574.43,297.99z"/>
	<path class="st8" d="M600.82,334.43c0.15,0.47,0.55,0.94,1.22,1.4c0.13,0.03,0.27,0.06,0.4,0.08c0.68,0.26,1.39,0.46,2.1,0.48
		c2.15,0.08,2.1-0.82,2.28-1.58c0.19-0.81,0.67-1.79-2.3-2.11c-1.36-0.15-3.56-0.43-4.5-0.15c-0.5,0.15-0.32,0.32-0.15,0.62
		C600.09,333.57,600.28,334.04,600.82,334.43L600.82,334.43z"/>
	<path class="st8" d="M792.61,435.41c0.15,0.47,0.55,0.94,1.21,1.41c0.13,0.03,0.27,0.06,0.4,0.08c0.68,0.26,1.39,0.46,2.11,0.48
		c2.15,0.08,2.1-0.82,2.28-1.58c0.19-0.81,0.67-1.79-2.3-2.11c-1.36-0.15-3.56-0.43-4.5-0.15c-0.5,0.15-0.32,0.32-0.15,0.62
		C791.89,434.54,792.08,435.02,792.61,435.41L792.61,435.41z"/>
	<path class="st8" d="M606.3,325.93c-0.53-0.26-1.57-0.71-1.59-1.05c-0.01-0.28,0.39-0.27,0.78-0.38c0.85-0.23,1.93-0.38,3.18,0.35
		c0.55,0.32,0.84,0.86,0.63,1.13c-0.18,0.24-1.13,0.49-1.93,0.2L606.3,325.93z"/>
	<path class="st8" d="M434.17,243.27c1.5,0.68,1.59,0.73,3.23,0.94c1.23,0.16,2.6,0.4,3.62,0.27c1.35-0.17,1.2-0.87,1.67-1.38
		c0.36-0.4,0.51-0.64-0.19-1.23c-0.67-0.57-1.79-1.24-2.82-1.75c-3.37-1.65-8.6-2.87-12.41-3.12c-2.5-0.16-5.4-0.2-6.42,0.67
		c-0.86,0.74-0.58,1.88,1.02,2.94c1.61,1.07,4.16,1.85,6.5,2.21c0.56,0.07,1.11,0.14,1.67,0.22c0.71,0.14,1.42,0.3,2.12,0.49
		C432.92,243.69,433.64,243.69,434.17,243.27z"/>
	<path class="st8" d="M209.58,299.03c1.5,0.68,1.59,0.73,3.23,0.94c1.23,0.16,2.6,0.4,3.63,0.27c1.35-0.17,1.2-0.87,1.67-1.38
		c0.36-0.4,0.51-0.64-0.19-1.23c-0.67-0.57-1.79-1.24-2.82-1.75c-3.37-1.65-8.6-2.87-12.41-3.12c-2.5-0.16-5.4-0.21-6.42,0.67
		c-0.86,0.74-0.58,1.88,1.02,2.94c1.61,1.07,4.16,1.85,6.5,2.21c0.56,0.07,1.11,0.14,1.67,0.22c0.71,0.14,1.42,0.3,2.12,0.49
		C208.33,299.45,209.05,299.45,209.58,299.03z"/>
	<path class="st8" d="M439.88,246.43c1.34-0.3,1.12-0.26,2.66,0.02c0.68,0.12,0.85,0.05,1.47,0.26c0.75,0.26,1.42,0.88,1.27,1.18
		c-0.12,0.24-1.42,0.33-1.93,0.31c-0.78-0.02-1.17-0.18-1.87-0.5L439.88,246.43z"/>
	<path class="st8" d="M425.22,305.56c1.28,0.44,2.79,0.99,3.82,0.63c0.7-0.24,0.23-0.98-0.36-1.48c-0.83-0.71-3.09-1.81-4.62-2.26
		c-1.65-0.49-3.61-0.13-3.94,0.42c-0.68,1.12,4.1,2.96,6.41,3.6L425.22,305.56z"/>
	<path class="st8" d="M398.8,376.6c1.28,0.44,2.79,0.99,3.82,0.63c0.7-0.24,0.23-0.98-0.36-1.48c-0.83-0.71-3.09-1.81-4.62-2.26
		c-1.65-0.49-3.61-0.13-3.94,0.42c-0.68,1.12,4.1,2.96,6.41,3.59L398.8,376.6z"/>
	<path class="st8" d="M439.42,309.88c-0.39-0.02-1.52,0.02-1.97-0.14c-0.21-0.08-0.23-0.18-0.38-0.27c-0.59-0.3-1.11-0.61-1.16-0.92
		c-0.12-0.66,0.56-1.01,1.98-0.98c0.93,0.02,1.84,0.23,2.5,0.7c0.73,0.51,0.93,1.28-0.14,1.37L439.42,309.88z"/>
	<path class="st8" d="M619.54,296.38c2.11,0.94,4.57,1.49,7.02,1.88c1.56,0.25,3.6,0.66,4.44,0.18c1.96-1.12-6.02-4.27-8.59-5.19
		c-2.12-0.76-4.71-1.48-7.01-1.87c-1.4-0.24-4.26-0.48-5.1-0.13c-1.08,0.46-0.14,1.5,1.13,2.24c2.94,1.72,7.07,2.46,10.57,3.77
		L619.54,296.38z"/>
	<path class="st8" d="M618.81,297.03c0.03,0.17,0.01,0.89,0.35,1.22c0.24,0.24,0.61,0.6,1.11,0.77c0.69,0.23,1.45,0.21,1.94,0.13
		c0.32-0.05,0.69-0.22,0.55-0.43c-0.11-0.17-0.57-0.4-0.84-0.56c-0.49-0.28-1.07-0.54-1.67-0.79c-0.27-0.12-0.53-0.26-0.86-0.36
		c-0.49-0.16-0.7-0.07-1.12-0.12L618.81,297.03z"/>
	<path class="st8" d="M638.77,302.74c0.24-0.12,0.48-0.24,0.73-0.36c0.5,0.16,1.11,0.22,1.39,0.5c0.19,0.19,0.12,0.54-0.06,0.66
		c-0.26,0.17-0.73,0.21-1.31,0.06c-0.68-0.18-0.9-0.48-0.96-0.75L638.77,302.74z"/>
	<path class="st8" d="M660.32,332.66c0.61,0.23,1.08,0.38,1.65,0.3c0.81-0.11,1.07-0.49,0.51-0.97c-0.77-0.66-2.63-1.62-4.18-1.86
		c-0.98-0.15-2.21,0.06-1.72,0.58c0.24,0.26,0.58,0.62,0.95,0.86c0.65,0.43,1.68,0.78,2.61,1.04L660.32,332.66z"/>
	<path class="st8" d="M346.83,237.2c0.38,0.28,0.49,0.4,1.06,0.58c0.64,0.21,1.28,0.39,1.91,0.38c1.24-0.01,2.21-0.54,2.64-0.99
		c0.39-0.41,0.32-0.81-0.3-1.38c-0.7-0.64-1.66-1.16-3.02-1.57c-1.43-0.43-2.5-0.57-3.5-0.3c-0.8,0.22-1.71,0.56-2.02,0.99
		c-0.29,0.4-0.05,0.78,0.6,1.29C344.77,236.67,345.84,237.34,346.83,237.2z"/>
	<path class="st8" d="M352.28,234.35c-0.37-0.1-0.82-0.18-0.88-0.36c-0.08-0.24,0.5-0.49,0.9-0.54c0.32-0.04,1.05,0.01,1.47,0.14
		c0.33,0.1,0.59,0.3,0.76,0.45c0.29,0.26,0.3,0.49-0.03,0.6c-0.23,0.08-0.71,0.28-1.18,0.12L352.28,234.35z"/>
	<path class="st8" d="M301.66,234.85c0.69,0.17,1.03,0.25,1.65,0.25c0.91,0.01,1.73-0.12,2.35-0.32c0.8-0.25,1.48-0.66,1.49-1.21
		c0.01-0.39-0.97-0.99-1.84-1.26c-1.04-0.32-2.62-0.54-3.54-0.49c-1.78,0.08-3.34,0.62-3.37,1.5
		C298.37,234.33,302.03,235.25,301.66,234.85z"/>
	<path class="st8" d="M311.3,232.78c-0.28,0.05-0.59,0.05-0.94,0c-0.13-0.18-0.52-0.32-0.63-0.51c-0.1-0.18,0.05-0.34,0.26-0.43
		c0.31-0.13,0.79-0.15,1.35-0.02c0.64,0.14,0.75,0.27,0.97,0.53c0.16,0.19,0.23,0.24-0.02,0.35c-0.13,0.06-0.44,0.13-0.62,0.16
		L311.3,232.78z"/>
</g>
</svg>
